TABLA DE SEGUIMIENTO A LAS INSTITUCIONES DE ESTÁNDARES DEL CTIC,,,,,,,,,
hecho,INSTITUCIÓN,OBS SITIO WEB,,,,OBS ARCHIVOS PUBLICADOS,EXCEPCIONES PRESENTADAS,,
s,,URL,SERVIDOR,FRONTEND,PETICIONES a sitios externos (no estatales),,SOFTWARE,COMENTARIO,
s,Ministerio de culturas y turismo,http://minculturas.gob.bo/,,Font Awesome-  Google Font,,,,,
s,Ministerio de deportes,http://www.mindeportes.gob.bo/,,Google Analytics,"- https://fonts.googleapis.com/css?family=Raleway:300- 400- 700- 800|Lato:300- 400- 700|Roboto:400- 500- 700- https://maps.googleapis.com/maps/api/js?client=google-maps-embed&paint_origin=&libraries=geometry- search&v=3.exp&language=es_ES&region=bo- https://pbs.twimg.com/media/D8K6UhkXYAAVY90?format=jpg&name=small- https://scontent.flpb2-1.fna.fbcdn.net/v/t1.0-0/s350x350/61737824_2246299152157471_6181532075904991232_n.jpg?_nc_cat=107&_nc_ht=scontent.flpb2-1.fna&oh=346d7bf0248d4c06e67a0e5acf4d8464&oe=5D9551F6- https://syndication.twitter.com/i/jot/syndication?l={""_category_"":""syndicated_impression""- ""triggered_on"":1559765781066- ""dnt"":false- ""event_namespace"":{""client"":""tfw""- ""page"":""timeline""- ""action"":""impression""}}- https://www.facebook.com/rsrc.php/v3/y7/l/0- cross/Q4zMpBw6nIQ.css",- www.mindeportes.gob.bo/upload/pdf/MODELO_DE_JUEGO.ppt- www.mindeportes.gob.bo/images/formzumba.xlsx-mindeportes.gob.bo/desafio/wp-content/.../05/ddesafio_ficha_inscripcion_2018.doc- http://www.mindeportes.gob.bo/upload/pdf/FORM_INSCRIPCION_2DO_CAMPEONATO_INTERPROMOCIONES.docx,- Applications Manager Professional Edition,,Revisado el 2019-06-05
s,Ministerio de la Presidencia,http://www.presidencia.gob.bo/,NA,NA,- https://connect.facebook.net/en_GB/sdk.js- https://pbs.twimg.com/profile_images/933305616600391680/jw4zCG2G_normal.jpg- https://platform.twitter.com/widgets/widget_iframe.d753e00c3e838c1b2558149bd3f6ecb8.html?origin=http://www.presidencia.gob.bo- https://scontent.flpb2-1.fna.fbcdn.net/v/t42.1790-29/62481606_120362685850790_2941287008835870489_n.mp4?_nc_cat=102&efg=eyJ2ZW5jb2RlX3RhZyI6ImRhc2hfbGl2ZV9tZF9mcmFnXzJfYXVkaW8ifQ==&_nc_ht=scontent.flpb2-1.fna&oh=d54ba202d92efeb9530c92d4c3cb4f14&oe=5CF84C63&bytestart=2794&byteend=18895,- http://www.presidencia.gob.bo/index.php/transparencia2/rendiciones-publicas?download=293:fnse.,,,Revisado el 2019-06-05
s,Ministerio de Comunicación,http://www.comunicacion.gob.bo/,,Google Analytics,,- http://comunicacion.gob.bo/sites/default/files/convocatorias/DBCSANJULIAN4TA.docx,,,
s,Ministerio de Defensa,www.mindef.gob.bo,,,,- www.mindef.gob.bo/ccuenta/admin/informes/r_1242_165177.docx- www.mindef.gob.bo/mindef/sites/default/files/Resultados_Evaluacion_Tecnica.xls,,,
s,Ministerio de Desarrollo Productivo y Economía Plural,http://produccion.gob.bo/,,,,,,,
s,Ministerio de Desarrollo Rural y Tierras,https://www.ruralytierras.gob.bo/,,,,,,,
s,Ministerio de Economía y Finanzas Públicas,https://www.economiayfinanzas.gob.bo/,,,,,,,
s,Ministerio de Educación de Bolivia,https://www.minedu.gob.bo/,,,,- www.minedu.gob.bo/files/ministerio-educacion/dgfm/formulario_denuncias.doc- dgfm.minedu.gob.bo/ap/efi/file/pro_vocaciones/PVEST-CH-SB-006.docx- www.minedu.gob.bo/files/documentos-normativos/VESFP/.../formato-curriculum.doc,,,
s,Ministerio de Energía de Bolivia,https://www.minenergias.gob.bo,,Font Awesome-  Google Font,,- sigvmeea.minenergias.gob.bo/documents/321/download,,,
s,Ministerio de Gobierno de Bolivia,,,Google Font API,- https://fonts.googleapis.com/css?family=Open+Sans:300italic- 400italic- 600italic- 700italic- 400- 300- 600- 700- 800- https://fonts.googleapis.com/css?family=Open+Sans:300italic- 400italic- 600italic- 700italic- 400- 300- 600- 700- 800,- www.mingobierno.gob.bo/documentos/Contrataciones/.../formato_curriculum.doc- www.mingobierno.gob.bo/documentos/rrhh/5.modelo_de_informe.docx- www.mingobierno.gob.bo/documentos/rrhh/4.formulario_de_evaluacion.xls,,,
s,Ministerio de Hidrocarburos,https://www3.hidrocarburos.gob.bo/,,,- https://oil-price.net/TABLE2/static/hover_1m.png - https://oil-price.net/TABLE2/static/hover_1y.png - https://oil-price.net/TABLE2/static/button_1q.png,[DOC]INF - https://www3.hidrocarburos.gob.bo/index.php/transparencia/auditoria.html?...la... - [DOC]INF - Ministerio de Hidrocarburos - https://www3.hidrocarburos.gob.bo/index.php/.../auditoria.html?download...a... - [DOC]RESOLUCIÓN MINISTERIAL No - Ministerio de Hidrocarburos - https://www3.hidrocarburos.gob.bo/index.php/.../plan.../31-eec-gnv.html?...n... - [DOC]INF - Ministerio de Hidrocarburos - https://www3.hidrocarburos.gob.bo/index.php/transparencia/auditoria.html?... - [DOC]resumen ejecutivo programa operativo anual reformulado - https://www3.hidrocarburos.gob.bo/index.php/.../auditoria.html?download…,KASPERSKY ,antivirus,
s,Ministerio de Justicia y Transparencia Institucional,,,,- https://fonts.googleapis.com/css?family=Montserrat,- www.transparencia.gob.bo/data/menu_derecho/rendicion.../temas_priorizados.pptx - www.transparencia.gob.bo/data/transparencia/DBC_EST.doc - www.transparencia.gob.bo/data/transparencia/Formulario_MTILCC_006.docx,Kaspesrky,antivirus,
s,Ministerio de Medio Ambiente y Agua de Bolivia,https://www.mmaya.gob.bo/,,,- https://galeria/images/flecha_sig.png- https://galeria/images/vermas2.jpg- https://ajax.googleapis.com/ajax/libs/jquery/1.7.2/jquery.min.js,- www.mmaya.gob.bo/.../CONVOCATORIA_CURSO2_DRENAJE_PLUVIAL.docx - www.mmaya.gob.bo%2Fuploads%2FFORM_ANTEPREOYECTO_2018_MOD_PPTO__MEM_DE_CALCULO -MAT_CONSULT1.xls&usg=AOvVaw3xCrpCpa_JmjbNglCR1_QQ - www.mmaya.gob.bo/uploads/PLANTILLA_EJEMPLO_IDEAL.xlsx,,,
s,Ministerio de Minería y Metalurgia,,,,,,,,
s,Ministerio de Obras Públicas-  Servicios y Vivienda,https://www.oopp.gob.bo/,,,,- https://sionet.oopp.gob.bo/Public/doc/CartaCompromiso.doc,,,
s,Ministerio de Planificación del Desarrollo,,,Google Font API,- https://fonts.googleapis.com/css?family=Montserrat:100- 200- 300- 400- 500- 600- 700- 800- 900|Open+Sans:300- 400- 600- 700- 800|Roboto:100- 300- 400- 500- 700- 900- https://cdnjs.cloudflare.com/ajax/libs/jquery-mousewheel/3.1.11/jquery.mousewheel.min.js?_=1559621781300- https://maxcdn.bootstrapcdn.com/bootstrap/3.3.7/js/bootstrap.min.js- https://fonts.googleapis.com/css?family=Montserrat:regular- 700- 900- 100- 200- 300,- www.planificacion.gob.bo%2Fuploads%2FBM_FDI_N_TF016494_Pliego_Consultor_Informatico_Plataformas_Virtuales_2.docx- - www.planificacion.gob.bo/uploads/formularios/formularioRRHH.xls,,,
s,Ministerio de Trabajo-  Empleo y Previsión Social,https://www.mintrabajo.gob.bo/,,Google Font API-  reCaptcha,- https://www.w3.org/Icons/valid-xhtml10-blue- https://fonts.gstatic.com/s/librefranklin/v3/jizAREVItHgc8qDIbSTKq4XkRi3s-CI0q1s.woff2- https://fonts.googleapis.com/css?family=Frank+Ruhl+Libre:400- 500- 700|Libre+Franklin:400- 500- 700- https://cdnjs.cloudflare.com/ajax/libs/fancybox/3.2.5/jquery.fancybox.min.js,- https://www.mintrabajo.gob.bo/images/DGP/guiadeuso.pptx- https://www.mintrabajo.gob.bo/images/tramites/descargas/Formulario_Finiquito.doc - https://www.mintrabajo.gob.bo/images/.../Formulario_Convenio_Salarial_2018.docx, Endpoint Protection ,antivirus,
s,Ministerio de Relaciones Exteriores,,,,,- www.cancilleria.gob.bo/webmre/sites/default/.../FORMULARIO_PORTE_ARMA.doc - www.cancilleria.gob.bo/webmre/sites/default/files/FichaMedica%20sc17.docx - http://www.cancilleria.gob.bo/coffee/sites/default/files/info_cafe_bol/DATOS%20DE%20EXPORTACIB5663%93N%20DE%20CAFB5663%89.pptx,,,
s,Ministerio de Salud,https://www.minsalud.gob.bo/,,google Font API,- https://fonts.googleapis.com/css?family=Open+Sans+Pro,- agemed.minsalud.gob.bo/unimed/archivo_regsan/reg_ventali.xls - https://snis.minsalud.gob.bo/publicaciones/send/96-taller-fortalecimiento-herramientas-informaticas/653-presentacion-sigein-  www.saludrenal.minsalud.gob.bo/Trasplante/Formularios/Anexo_12.doc - https://www.minsalud.gob.bo/images/Descarga/Form_3er_Nivel.docx,,,
s,Cámara de Diputados,,,,- https://cdn.jsdelivr.net/npm/@unicorn-fail/drupal-bootstrap-styles@0.0.1/dist/3.3.1/7.x-3.x/drupal-bootstrap.css- https://cdn.jsdelivr.net/npm/bootstrap@3.3.7/dist/js/bootstrap.js- https://fonts.googleapis.com/css?family=Didact+Gothic- https://fonts.googleapis.com/css?family=Poppins:300- 400- 500- 600- 700- https://fonts.googleapis.com/css?family=Open+Sans:300- 400- 600- 700- https://juicebox.net/img/jb001.png,- www.diputados.bo/sites/default/files/publicaciones/anexo-formato-cv-vtse.doc,,,
,Cámara de Senadores,https://web.senado.gob.bo/,,,,,,,
s,Vicepresidencia del Estado Plurinacional,https://www.vicepresidencia.gob.bo/,,,,,G DATA Business ,Seguridad,
s,Dirección General del Centro de Investigaciones Sociales,https://www.cis.gob.bo/,,Google Font API-  google Analytics,- https://npmcdn.com/imagesloaded@4.1/imagesloaded.pkgd.min.js- https://cdnjs.cloudflare.com/ajax/libs/jquery.isotope/2.2.2/isotope.pkgd.min.js,,,,
s,Dirección General de la FELCN,https://www.felcn.gob.bo/,,,,,,,
,Viceministerio de Defensa Civil,http://defensacivil.gob.bo/web/,,,- https://fonts.googleapis.com/css?family=Source+Sans+Pro:300- 400- 700- 300italic- 400italic- 700italic - https://fonts.googleapis.com/css?family=Source+Sans+Pro:300- 400- 700- 300italic- 400italic- 700italic,,,,
,Dirección General de Emergencia y Auxilio,,,,,,,,
,Dirección General de Prevención y Reconstrucción,,,,,,,,
,Dirección General de Derechos Humanos e Intercultural en las FF.AA.,,,,,,,,
,Viceministerio de Movimientos Sociales y Sociedad Civil,,,,,,,,
,Dirección General de Coordinación con la Sociedad Civil,,,,,,,,
,Viceministerio de Coordinación y Gestión Gubernamental,,,,,,,,
,Dirección General de Gestión Legislativa Plurinacional,,,,,,,,
,Dirección General de Gestión Pública Plurinacional,,,,,,,,
,Dirección General de Defensa del Consumidor,https://consumidor.justicia.gob.bo/,,,,,,,
,Viceministerio de Salud y Promoción,,,,,,,,
,Dirección General de Servicios de Salud,https://www.minsalud.gob.bo/contactos/guia-telefonica/9-direccion-general-de-servicios-de-salud,,,,,,,
,Dirección General de Seguros de Salud,https://www.minsalud.gob.bo/contactos/guia-telefonica/10-direccion-general-seguros-de-salud,,,,,,,
,Dirección General de Promoción de la Salud,https://www.minsalud.gob.bo/37-institucional/enlaces/1640-direccion-general-de-promocion-de-la-salud,,,,,,,
,Viceministerio de Medicina Tradicional e Interculturalidad,https://www.minsalud.gob.bo/contactos/guia-telefonica/3-viceministerio-de-medicina-tradicional-e-interculturalidad,,,,,,,
,Viceministerio de Tierras,www.vicetierras.gob.bo,,,,,,,
,Dirección General de Distribución de Tierras,,,,,,,,
,Dirección General de Producción Agropecuaria y Soberanía Alimentaria,,,,,,,,
,Viceministerio de Coca y Desarrollo Integral,,,,,,,,
,Dirección General de la Hoja de Coca e Industrialización,,,,,,,,
s,Fondo Nacional de Desarrollo Integral,https://fonadin.gob.bo/,,Font Awesome- Google API ,https://fonts.googleapis.com/css?family=Droid+Serif:400- 700|Nunito+Sans:300- 400- 700- 900|Source+Sans+Pro:400- 700&ver=1.2.9,[XLS]MEM CALC - FONADIN- www.fonadin.gob.bo/doc/modelos/modelo_memoria_de_calculo.xlsx- [XLS]Gestión 2012- https://fonadin.gob.bo/archivos/informacion%20financiera/ejecucion_2012.xlsx- - [XLS]SGP Parte 4A - FONADIN- www.fonadin.gob.bo/doc/modelos/modelo_sgp.xls- - [DOC]CONVENIO DE COFINANCIAMIENTO Y COORDINACIÓN ...- www.fonadin.gob.bo/doc/modelos/modelo_convenio.doc- - [DOC]INFORME TECNICO PROYECTO: “PLANTA PROCESADORA DE ...- www.fonadin.gob.bo/doc/modelos/modelo_informe_tecnico.docx- [DOC]resolución municipal nº 000…/2013 - FONADIN- www.fonadin.gob.bo/doc/modelos/modelo_resolucion.docx- - [DOC]INFORME TÉCNICO LEGAL ……………………………. A: NOMBRE Y ...- www.fonadin.gob.bo/doc/modelos/modelo_informe_tecnico_legal.docx- [DOC]Lugar y Fecha CITE N' ………… CERTIFICACIÓN PRESUPUESTARIA ...- www.fonadin.gob.bo/doc/modelos/modelo_certificacion.docx- ,kaspersky,antivirus,
,Dirección General de Desarrollo Integral de las Regiones Productoras de Coca,,,,,,,,
,Viceministerio de Descolonización,,,,,,,,
,Dirección General de Administración Pública Plurinacional,,,,,,,,
,Dirección General de Lucha Contra el Racismo,,,,,,,,
,Viceministerio de Interculturalidad,,,,,,,,
,Dirección General de Promoción Cultural y Artística,,,,,,,,
,Dirección General de Patrimonio Cultural,,,,,,,,
,Viceministerio de Turismo,,,,,,,,
,Dirección General de Turismo,,,,,,,,
,Dirección General de Control a la Actividad Turística,,,,,,,,
,Despacho Ministro de Planificación del Desarrollo,,,,,,,,
,Viceministerio de Planificación y Coordinación,,,,,,,,
,Dirección General del Sistema de Planificación Integral Estatal,,,,,,,,
,Dirección General de Seguimiento y Coordinación,,,,,,,,
,Dirección General de Planificación Territorial,,,,,,,,
,Viceministerio de Inversión Pública y Financiamiento Externo,,,,,,,,
,Dirección General de Programación y Preinversión,,,,,,,,
,Dirección General de Gestión de Financiamiento Externo,,,,,,,,
,Dirección General de Gestión de la Inversión Pública,,,,,,,,
,Viceministerio de Planificación Estratégica del Estado,,,,,,,,
,Dirección General de Empresas Estatales,,,,,,,,
,Dirección General de Desarrollo Comunitario y Economía Plural,,,,,,,,
,Despacho Ministro de Trabajo-  Empleo y Previsión Social,,,,,,,,
,Viceministerio de Empleo-  Servicio Civil y Cooperativas,,,,,,,,
,Dirección General de Empleo,,,,,,,,
,Dirección General de Políticas Públicas-  Fomento-  Protección y Promoción Cooperativa,,,,,,,,
,Dirección General de Servicio Civil,,,,,,,,
,Viceministerio de Trabajo y Previsión Social,,,,,,,,
,Dirección General de Políticas de Previsión Social,,,,,,,,
,Dirección General de Asuntos Sindicales,,,,,,,,
,Dirección General de Trabajo-  Higiene y Seguridad Ocupacional,,,,,,,,
,Despacho Ministro de Minería y Metalurgia,,,,,,,,
,Viceministerio de Política Minera Regulación y Fiscalización,,,,,,,,
,Viceministerio de Desarrollo Productivo Minero Metalúrgico,,,,,,,,
,Dirección General de Desarrollo Productivo,,,,,,,,
,Dirección General de Medio Ambiente y Consulta Pública,,,,,,,,
,Viceministerio de Cooperativas Mineras,,,,,,,,
,Dirección General de Cooperativas Mineras,,,,,,,,
,Despacho Ministro de Hidrocarburos y Energía,,,,,,,,
,Viceministerio de Desarrollo Energético,,,,,,,,
,Dirección General de Gestión Socio Ambiental,,,,,,,,
,Dirección General de Planificación e Integración Energética,,,,,,,,
,Viceministerio de Industrialización-  Comercialización-  Transporte y Almacenaje de Hidrocarburos,,,,,,,,
,Dirección General de Industrialización y Refinación,,,,,,,,
,Dirección General de Comercialización-  Transporte y Almacenaje,,,,,,,,
,Viceministerio de Exploración y Explotación de Hidrocarburos,,,,,,,,
,Dirección General de Exploración y Explotación de Hidrocarburos,,,,,,,,
,Viceministerio de Electricidad y Energías Alternativas,,,,,,,,
,Dirección General de Electricidad,,,,,,,,
,Dirección General de Energías Alternativas,,,,,,,,
,Dirección General de Control y Fiscalización,,,,,,,,
,Viceministerio de Vivienda y Urbanismo,,,,,,,,
,Dirección General de Vivienda y Urbanismo,,,,,,,,
,Dirección General de Ordenamiento Urbano,,,,,,,,
,Viceministerio de Transportes,,,,,,,,
,Dirección General de Transporte Terrestre-  Fluvial y Lacustre,,,,,,,,
,Dirección General de Transporte Aéreo,,,,,,,,
,Viceministerio de Telecomunicaciones,,,,,,,,
,Dirección General de Telecomunicaciones,,,,,,,,
,Dirección General de Servicios de Telecomunicaciones,,,,,,,,
,Despacho Ministro de Medio Ambiente y Agua,,,,,,,,
,Viceministerio de Agua Potable y Saneamiento Básico,,,,,,,,
,Dirección General de Agua Potable y Alcantarillado Sanitario,,,,,,,,
,Dirección General de Gestión Integral de Residuos Sólidos,,,,,,,,
,Viceministerio de Recursos Hídricos y Riego,,,,,,,,
,Dirección General de Cuencas y Recursos Hídricos,,,,,,,,
,Dirección General de Riego,,,,,,,,
,Viceministerio de Medio Ambiente-  Biodiversidad Cambios Climáticos y de Gestión y Desarrollo Forestal,,,,,,,,
,Dirección General de Biodiversidad y Áreas Protegidas,,,,,,,,
,Dirección General de Medio Ambiente y Cambios Climáticos,,,,,,,,
,Dirección General de Gestión y Desarrollo Forestal,,,,,,,,
,Despacho Ministro de Comunicación,,,,,,,,
,Viceministerio de Gestión Comunicacional,,,,,,,,
,Dirección General de Redes Sociales,,,,,,,,
,Dirección General de Medios Estatales,,,,,,,,
,Dirección General de Estudios y Proyectos,,,,,,,,
,Viceministerio de Políticas Comunicacionales,,,,,,,,
,Dirección General de Información Gubernamental,,,,,,,,
,Dirección General de Estrategias,,,,,,,,
,Consejo Supremo de Defensa Plurinacional (COSDEP),,,,,,,,
,Tesoro General de la Nación,,,,,,,,
,Registro Internacional Boliviano de Buques,,,,,,,,
s,Gaceta Oficial de Bolivia,http://www.gacetaoficialdebolivia.gob.bo/,Windows Server,,,,,,
,Unidad de Proyectos Especiales,,,,,,,,
,Fondo Nacional de Solidaridad y Equidad,,,,,,,,
,Servicio Nacional de Patrimonio del Estado,,,,,,,,
s,Servicio Nacional del Sistema de Reparto,https://www.senasir.gob.bo/,,,,- senasir.gob.bo/images/documentos/cartas/Ca/.../RequisitosOrfandad2016.doc - supernet.senasir.gob.bo/uaf/F-SG-05-GASOLINA.xls,- VeriFinger 10.0 Extended SDK- Kaspersky ,- Verificación biométrica- Antivirus,
,Unidad de Coordinación de Programas y Proyectos,,,,,,,,
s,Servicio Nacional de Propiedad Intelectual,https://www.senapi.gob.bo/,Windows Server-  ISS,Google Analytics,,-www.senapi.gob.bo/fuentes_pdf/TUTORIAL_PARA_IMAGENES.doc - www.senapi.gob.bo/convocatorias/2012_11/CONVOCATORIA_LEY_2CONV.docx - www.senapi.gob.bo/oposiciones/Opos031.xls - ,- Cisco FPR2110 Threat Defense Threat and URL ,- Software para equipos CISCO,
,Instituto Boliviano de Metrología,,,,,,,,
,Servicio Nacional de Verificación de Exportaciones,,,,,,,,
,Promueve – Bolivia,,,,,,,,
,Instituto Nacional de Seguros de Salud,,,,,,,,
,Centro Nacional de Enfermedades Tropicales,,,,,,,,
,Instituto Nacional de Laboratorios de Salud,,,,,,,,
,Escuela de Salud La Paz,,,,,,,,
,Servicio Nacional de Áreas Protegidas,,,,,,,,
,Unidad Operativa Boliviana,,,,,,,,
,Servicio Nacional de Sanidad Agropecuaria e Inocuidad Alimentaria,,,,,,,,
,Fondo Nacional de Desarrollo Alternativo,,,,,,,,
,Institución Pública Desconcentrada Soberanía Alimentaria,,,,,,,,
,Institución Pública Desconcentrada de Pesca y Acuicultura “PACU”,,,,,,,,
,Conoce – Bolivia,,,,,,,,
,Centro de Comunicaciones La Paz,,,,,,,,
,Entidad Ejecutora de Conversión a Gas Natural Vehicular,,,,,,,,
,Órgano Judicial (Tribunal Supremo de Justicia),,,,,,,,
,Jefatura de Gabinete,,,,,,,,
,Sala Contenciosa-  Social y Administrativa Primera (Magistrado),,,,,,,,
,Sala Contenciosa-  Social y Administrativa Primera (Presidencia),,,,,,,,
,Sala Contenciosa-  Social y Administrativa Segunda (Magistrado),,,,,,,,
,Sala Contenciosa-  Social y Administrativa Segunda (Presidencia),,,,,,,,
,Dirección General Administrativa Financiera,,,,,,,,
,Tribunal Agroambiental,,,,,,,,
,Sala Primera Especializada (Presidencia),,,,,,,,
,Sala Primera Especializada (Magistrado),,,,,,,,
,Sala Segunda Especializada (Presidencia),,,,,,,,
,Sala Segunda Especializada (Magistrado),,,,,,,,
,Consejo de la Magistratura,,,,,,,,
,Sala de Control y Fiscalización,,,,,,,,
,Sala Disciplinaria,,,,,,,,
,Tribunal Departamental de Justicia Chuquisaca,,,,,,,,
,Tribunal Departamental de Justicia La Paz,,,,,,,,
,Tribunal Departamental de Justicia Cochabamba,,,,,,,,
,Tribunal Departamental de Justicia Santa Cruz,,,,,,,,
,Tribunal Departamental de Justicia Oruro,,,,,,,,
,Tribunal Departamental de Justicia Potosí,,,,,,,,
,Tribunal Departamental de Justicia Tarija,,,,,,,,
,Tribunal Departamental de Justicia Beni,,,,,,,,
,Tribunal Departamental de Justicia Pando,,,,,,,,
,Tribunal Constitucional Plurinacional,,,,,,,,
s,Fondo Nacional de Desarrollo Regional,http://www.fndr.gob.bo,,,,[DOC]Formulario PADEMU 1-A - Fondo Nacional de Desarrollo Regional- www.fndr.gob.bo/bundles/fndrdemo/.../Modelo_Perfi_Proyecto_Maquinaria.doc- - Versión revisada.- [DOC]Descargar- www.fndr.gob.bo/bundles/fndrdemo/.../Requisitos_Certificado_Credito_Publico.doc- - [DOC]Descargar - Fondo Nacional de Desarrollo Regional- www.fndr.gob.bo/bundles/fndrdemo/.../Plan_Participación_Control_Social2017.doc- - [DOC]Descargar - Fondo Nacional de Desarrollo Regional- www.fndr.gob.bo/bundles/fndrdemo/.../Plan_Participación_Control_Social.doc- - [DOC]Descargar - Fondo Nacional de Desarrollo Regional- www.fndr.gob.bo/bundles/.../Modelo_Resolución_Maquinaria_Vivir_Bien_PRIJ.doc- - [DOC]Ref.: Certificación Inclusión en el POA y PDM Gestión 2010- www.fndr.gob.bo/bundles/fndrdemo/.../Modelo_Certificacion_POA_PDM.doc- - [DOC](fecha)…………………………………………………… Señor: Ing. Edson ...- www.fndr.gob.bo/bundles/fndrdemo/.../Carta_Solicitud_Todos_Programas.doc- - [DOC]Formulario PADEMU 1-A- www.fndr.gob.bo/bundles/fndrdemo/downloads/.../Modelo_Marco_Logico.doc- - Versión revisada.- [DOC]19. adjudicación o declaratoria desierta - Fondo Nacional de ...- www.fndr.gob.bo/bundles/fndrdemo/downloads/.../bienes.../DBC_switches.doc?...- [DOC]convocatoria - Fondo Nacional de Desarrollo Regional- www.fndr.gob.bo/bundles/fndrdemo/downloads/.../5%20CONVOCATORIA.doc-  1 - convocatoria - Fondo Nacional de Desarrollo Regional- www.fndr.gob.bo/bundles/fndrdemo/downloads/.../2%20CONVOCATORIA.docx- - [DOC]convocatoria - Fondo Nacional de Desarrollo Regional- www.fndr.gob.bo/bundles/fndrdemo/downloads/.../2%20CONVOCATORIA.docx- - [DOC]Descargar- www.fndr.gob.bo/bundles/fndrdemo/downloads/servicios/.../ANEXO%20I.docx- - [DOC]convocatoria- www.fndr.gob.bo/bundles/fndrdemo/downloads/.../2%20CONVOCATORIA.docx- - [DOC]D.B.C. - Fondo Nacional de Desarrollo Regional- www.fndr.gob.bo/bundles/fndrdemo/.../1%20DBC-SERVIDORES%202016.docx- - [DOC]convocatoria - Fondo Nacional de Desarrollo Regional- www.fndr.gob.bo/bundles/fndrdemo/downloads/.../2%20CONVOCATORIA.docx- - [DOC]modelo 1 - Fondo Nacional de Desarrollo Regional- www.fndr.gob.bo/bundles/fndrdemo/downloads/.../1%20MODELO%20CARTA.docx- - [DOC]modelo 1 - Fondo Nacional de Desarrollo Regional- www.fndr.gob.bo/bundles/fndrdemo/downloads/.../1%20MODELO%20CARTA.docx- - [DOC]Documento Base de Contratación en la Modalidad ANPE para la ...- www.fndr.gob.bo/.../14-0862-00-463011-1-1_DB_20140423152311.docx?...- - [DOC]Descargar - Fondo Nacional de Desarrollo Regional- - Resultados de búsqueda- Resultados de la Web- [DOC]Formulario PADEMU 1-A - Fondo Nacional de Desarrollo Regional- www.fndr.gob.bo/bundles/fndrdemo/.../Modelo_Perfi_Proyecto_Maquinaria.doc- - Versión revisada.- [DOC]Descargar- www.fndr.gob.bo/bundles/fndrdemo/.../Requisitos_Certificado_Credito_Publico.doc- - [DOC]Descargar - Fondo Nacional de Desarrollo Regional- www.fndr.gob.bo/bundles/fndrdemo/.../Plan_Participación_Control_Social2017.doc- - [DOC]Descargar - Fondo Nacional de Desarrollo Regional- www.fndr.gob.bo/bundles/fndrdemo/.../Plan_Participación_Control_Social.doc- - [DOC]Descargar - Fondo Nacional de Desarrollo Regional- www.fndr.gob.bo/bundles/.../Modelo_Resolución_Maquinaria_Vivir_Bien_PRIJ.doc- - [DOC]Ref.: Certificación Inclusión en el POA y PDM Gestión 2010- www.fndr.gob.bo/bundles/fndrdemo/.../Modelo_Certificacion_POA_PDM.doc- - [DOC](fecha)…………………………………………………… Señor: Ing. Edson ...- www.fndr.gob.bo/bundles/fndrdemo/.../Carta_Solicitud_Todos_Programas.doc- - [DOC]Formulario PADEMU 1-A- www.fndr.gob.bo/bundles/fndrdemo/downloads/.../Modelo_Marco_Logico.doc- - Versión revisada.- [DOC]19. adjudicación o declaratoria desierta - Fondo Nacional de ...- www.fndr.gob.bo/bundles/fndrdemo/downloads/.../bienes.../DBC_switches.doc?...- [DOC]convocatoria - Fondo Nacional de Desarrollo Regional- - Resultados de búsqueda- Resultados de la Web- [XLS]de inicio de operaciones de crédito público- www.fndr.gob.bo/bundles/fndrdemo/.../Formulario_Certificado_Credito_Publico.xls- - Resultados de búsqueda- Resultados de la Web- [XLS]Descargar- www.fndr.gob.bo/bundles/fndrdemo/.../9%20CUADRO%20ENDEUDAMIENTO.xlsx- - ,Trend Micro,antivirus,
,Sala Primera Especializada,,,,,,,,
,Sala Segunda,,,,,,,,
,Sala Tercera,,,,,,,,
,Órgano Electoral Plurinacional,,,,,,,,
,Vicepresidencia Tribunal Supremo Electoral,,,,,,,,
,Secretaría de Cámara,,,,,,,,
,Dirección Nacional de Administración,,,,,,,,
,Dirección Nacional Jurídica,,,,,,,,
,Dirección Nacional de Tecnologías de la Información y Comunicación,,,,,,,,
,Dirección Nacional de Desarrollo Estratégico,,,,,,,,
,Dirección Nacional Económica - Financiera,,,,,,,,
,Tribunal Electoral La Paz,,,,,,,,
,Tribunal Electoral Chuquisaca,,,,,,,,
,Tribunal Electoral Cochabamba,,,,,,,,
,Tribunal Electoral Santa Cruz,,,,,,,,
,Tribunal Electoral Potosí,,,,,,,,
,Tribunal Electoral Oruro,,,,,,,,
,Tribunal Electoral Tarija,,,,,,,,
,Tribunal Electoral Beni,,,,,,,,
,Tribunal Electoral Pando,,,,,,,,
,Contraloría General del Estado,https://www.contraloria.gob.bo/portal/,Windows Server -ISS,,,[XLS]1 - Contraloría General del Estado - BoliviaGNAF/CI/…/98 - Contraloría General del Estado - Bolivia
https://www.contraloria.gob.bo › portal › Uploads › gnai
[DOC]DOCENTES POTENCIALES
www.contraloria.gob.bo › TextosCENCAP › formularios › regdocente
[DOC]2021, Programa Operativo Anual 2019 y emisión - Contraloría ...
https://www.contraloria.gob.bo › InstructivoPOA-2019-PROYECTO-3
[DOC]Anexo
https://www.contraloria.gob.bo › Uploads › Anexo-instructivo-POA-2019
[DOC]Form. Solicitud de Solvencia Fiscal para personas individuales
https://www.contraloria.gob.bo › Uploads › solvencias › I-027-SL-2_F-1032
[DOC]Form. Solicitud de Solvencia Fiscal para personas colectivas
https://www.contraloria.gob.bo › Uploads › solvencias › I-027-SL-2_F-1033
[DOC]resultados finales
www.contraloria.gob.bo › portal › Uploads › gnai
[DOC]FORMULARIO DE POSTULACION Programa Gratuito de …
www.contraloria.gob.bo › portal › Uploads › BID › Formulario_de_Postul...
[DOC]Formulario F- 3218 Cod. de Norma RE/CE-026 ...
https://www.contraloria.gob.bo › portal › Uploads › contratos › Formulari...

www.contraloria.gob.bo › portal › Uploads › gnai[XLS]Matriz de Control Interno
https://www.contraloria.gob.bo › portal › Uploads › informesControlInterno
[XLS]1 - Contraloría General del Estado - Bolivia
https://www.contraloria.gob.bo › portal › Uploads › gnai
[XLS]formulario único de postulación - Contraloría General del ...
https://www.contraloria.gob.bo › portal › Uploads › gnai
[XLS]Contratación - Contraloría General del Estado - Bolivia
www.contraloria.gob.bo › portal › Uploads › formulario_n1_entidades_v2
[XLS]Formulario de Encuestas - Contraloría General del Estado ...
https://www.contraloria.gob.bo › portal › Uploads › Formulario_N_1_Enc...
[XLS]Proyectos
www.contraloria.gob.bo › portal › Uploads › formulario_n1_entidades
[XLS]Hoja1
www.contraloria.gob.bo › portal › Uploads › cencap
[XLS]FORMULARIO N°1 Entidades gestión 2016 Guia de llenado
https://www.contraloria.gob.bo › Uploads › Fomulario_n1_2016_llenado
[XLS]Formulario de gestión 2017
https://www.contraloria.gob.bo › Uploads › formulario_n1_entidades_2017
[XLS]FORMULARIO N°1 Entidades gestión 2016
https://www.contraloria.gob.bo › portal › Uploads › Fomulario_n1_2016 Formulario de gestión 2015
https://www.contraloria.gob.bo › Uploads › formulario_n1_entidades_2015
[XLS]Hoja1
www.contraloria.gob.bo › portal › Uploads › gnai
[XLS]Hoja1 (2)
www.contraloria.gob.bo › portal › Uploads › gnai
[XLS]Encuestas de percepción - Contraloría General del Estado ...
www.contraloria.gob.bo › portal › Uploads
[XLS]Encuestas de percepción - Contraloría General del Estado ...
https://www.contraloria.gob.bo › portal › Uploads
[XLS]Encuestas de percepción - Contraloría General del Estado ...
www.contraloria.gob.bo › portal › Uploads
[XLS]Contratación
www.contraloria.gob.bo › formulario_n1_entidades_guia_llenado.xlsx.xlsx
[XLS]Formulario de gestión 2018
https://www.contraloria.gob.bo › portal › Portals › upload
[XLS]Auditorías
https://www.contraloria.gob.bo › portal › Portals › upload › PDF

,- Kaspersky Endpoint Security for Businnes -VSphere 6 Standard -VCenter Server 6 Standard -KARPERSKY ENDPOINT FOR BUSINNES -PRTG Network Monitor- vSphere 5 Standart - VSphere 6-VCenter Server 5 Standart Standart ,-Antivirus -Virtualización-Virtualización-Antivirus-Montitor de red-Virtualización-Virtualización-Virtualización,
,Contraloría Gerencia Departamental Chuquisaca,,,,,,,,
,Contraloría Gerencia Departamental La Paz,,,,,,,,
,Contraloría Gerencia Departamental Cochabamba,,,,,,,,
,Contraloría Gerencia Departamental Santa Cruz,,,,,,,,
,Contraloría Gerencia Departamental Oruro,,,,,,,,
,Contraloría Gerencia Departamental Potosí,,,,,,,,
,Contraloría Gerencia Departamental Tarija,,,,,,,,
,Contraloría Gerencia Departamental Beni,,,,,,,,
,Contraloría Gerencia Departamental Pando,,,,,,,,
s,Ministerio Público - Fiscalía General del Estado,https://www.fiscalia.gob.bo/,,Google Font API,https://fonts.googleapis.com/icon?family=Material+Icons- https://fonts.googleapis.com/css?family=Roboto:400- 400italic- 300- 300italic- 700- 700italic- https://fonts.googleapis.com/css?family=Roboto+Slab:400- 300- 700- https://fonts.googleapis.com/css?family=Roboto+Condensed:700- 400,[XLS]Hoja1 - fiscalia departamental de cochabamba - useco- useco.fiscalia.gob.bo/descarga/firmas.xlsx- - [XLS]folio- useco.fiscalia.gob.bo/descarga/material.xlsx- - ,,,
,Fiscalía Departamental de Chuquisaca,,,,,,,,
,Fiscalía Departamental de La Paz,,,,,,,,
,Fiscalía Departamental de Cochabamba,,,,,,,,
,Fiscalía Departamental de Santa Cruz,,,,,,,,
,Fiscalía Departamental de Oruro,,,,,,,,
,Fiscalía Departamental de Potosí,,,,,,,,
,Fiscalía Departamental de Tarija,,,,,,,,
,Fiscalía Departamental de Beni,,,,,,,,
,Fiscalía Departamental de Pando,,,,,,,,
s,Defensoría del Pueblo,https://www.defensoria.gob.bo/,,Font Awesome-  Google Font API,https://fonts.googleapis.com/css?family=Roboto:300- 400- 700,,,,
,Defensoría Departamental Chuquisaca,,,,,,,,
,Defensoría Departamental La Paz,,,,,,,,
,Defensoría Departamental Cochabamba,,,,,,,,
,Defensoría Departamental Santa Cruz,,,,,,,,
,Defensoría Departamental Oruro,,,,,,,,
,Defensoría Departamental Potosí,,,,,,,,
,Defensoría Departamental Tarija,,,,,,,,
,Defensoría Departamental Beni,,,,,,,,
,Defensoría Departamental Pando,,,,,,,,
,Procuraduría General del Estado,,,,,,,,
,Procuraduría Departamental Chuquisaca,,,,,,,,
,Procuraduría Departamental La Paz,,,,,,,,
,Procuraduría Departamental Cochabamba,,,,,,,,
,Procuraduría Departamental Santa Cruz,,,,,,,,
,Procuraduría Departamental Oruro,,,,,,,,
,Procuraduría Departamental Potosí,,,,,,,,
,Procuraduría Departamental Tarija,,,,,,,,
,Procuraduría Departamental Beni,,,,,,,,
,Procuraduría Departamental Pando,,,,,,,,
S,Agencia para el Desarrollo de la Sociedad de la Información en Bolivia,https://adsib.gob.bo/,NA,NA,NA,- https://gitlab.adsib.gob.bo/adsib/TDfond/.../FSF-DACF-SIST-NE-972_2010.DOCX - https://gitlab.adsib.gob.bo/adsib/TDfond/raw/.../FSF-DSC-NI-2337_2010.DOC - https://intranet.adsib.gob.bo/proyectos/attachments/87/Pres_IDE_13_diciembre.ppt,NA,NA,Revisado el 2019-06-05
s,Dirección Estratégica de Reivindicación Marítima,http://www.diremar.gob.bo/diremar/,,Font Awesome- Google Font API ,https://cdnjs.cloudflare.com/ajax/libs/font-awesome/4.7.0/css/font-awesome.css?ver=2.1.0- https://fonts.googleapis.com/css?family=Open+Sans:400- 600&ver=4.8,,,,
,Servicio General de Identificación Personal,,,,,,,,
S,Mutual de Servicios al Policía,,NA,Google Font API,- https://fonts.googleapis.com/css?family=Roboto:300- 400- 500- 700|Google+Sans- https://maps.googleapis.com/maps-api-v3/api/js/37/4/intl/es_ALL/util.js- https://maps.gstatic.com/mapfiles/embed/images/entity11.png,-  http://www.muserpol.gob.bo/index.php/transparencia/recursos-humanos?download=19:formulario-de-postulacion-2019,NA,NA,Revisado el 2019-06-05
,Conservatorio Plurinacional de Música,,,,,,,,
s,Academia Nacional de Ciencias,http://www.aciencias.org.bo/,,,,[DOC]hoja_de_vida hernan vera.doc - Academia Nacional de Ciencias de ...www.aciencias.org.bo/sites/default/files/hoja_de_vida%20hernan%20vera.doc,,,
s,Escuela de Gestión Pública Plurinacional,http://web.egpp.gob.bo/,,,- https://fonts.googleapis.com/css?family=Roboto&subset=latin- cyrillic-ext- latin-ext- cyrillic- greek-ext- greek- vietnamese,Cómo preparar su postulación. - Escuela de Gestión Pública ...- web.egpp.gob.bo/archivos/postulacion_postgrado_oea2019.doc- - [DOC]Propuesta Réplica.- web.egpp.gob.bo/archivos/Form2PropuestaReplica.doc- - [DOC]Material Bibliográfico.- web.egpp.gob.bo/archivos/Form3MaterialBibliografico.doc- - [DOC]CENTRO EGIPCIO INTERNACIONAL PARA LA AGRICULTURA ...- web.egpp.gob.bo/archivos/formulario_aplicacion_egipto_2019.doc- - [DOC]documento para descargar - Escuela de Gestión Pública Plurinacional- web.egpp.gob.bo/archivos/DBC-ANPE09(COORD-UNICEF).doc- - [DOC]Informe Evento.- web.egpp.gob.bo/archivos/Form%201%20Informe_Evento.doc- - [DOC]UNIDAD DE AUDITORIA INTERNA RESUMEN EJECUTIVO Informe ...- web.egpp.gob.bo/archivos/RESUMEN%20EJECUTIVO%20SPO.doc- [DOC]Formato de carta. - Escuela de Gestión Pública Plurinacional- web.egpp.gob.bo/archivos/Formato%20de%20carta.doc- - [DOC]UNIDAD DE AUDITORIA INTERNA RESUMEN EJECUTIVO Informe ...- web.egpp.gob.bo/archivos/RESUMEN%20EJECUTIVO%20SPO-CGE-1.doc- - [DOC]requisitos del gobierno de bolivia - Escuela de Gestión Pública ...- web.egpp.gob.bo/.../Como%20preparar%20su%20postulacion%20-%20Pregrado.doc- - Resultados de búsqueda- Resultados de la Web- [DOC]requisitos - Escuela de Gestión Pública Plurinacional- web.egpp.gob.bo/archivos/REQUISITOS%20PARA%20EL%20COMPROMISO.doc- - [DOC]ESCUELA DE GESTION PÚBLICA PLURINACIONAL UNIDAD DE ...- web.egpp.gob.bo/.../RESUMEN%20EJECUTIVO-INF-EGPP-UAI-S-003-2014.doc- - [DOC]estudios para los que necesita la beca - INDESGUA- web.egpp.gob.bo/.../Anexo%204- %20Formulario%20de%20Postulacion%202018%2...- - [DOC]convocatoria - Escuela de Gestión Pública Plurinacional- web.egpp.gob.bo/.../CM187(Profesional%20en%20Gestion%20y%20Seg%20Adminis...- - - - - Formulario de Admisión **** Yo-  el abajo firmado: Primer Nombre ...- web.egpp.gob.bo/archivos/formulario_admision_egipto_2019.docx- - Informe de Auditoría Interna EGPP-UAI-006-2014 correspondiente a ...- web.egpp.gob.bo/archivos/RESUMEN%20EJECUTIVO.docx- - programa operativo anual gestión 2013 - Escuela de Gestión Pública ...- web.egpp.gob.bo/archivos/RESUMEN%20EJECUTIVO-POA-2013.docx- - 2009년도 대한민국 정부초청- web.egpp.gob.bo/.../Formularios%20de%20Postulacion%20Corea...- - Traducir esta página- ESCUELA DE GESTION PÚBLICA PLURINACIONAL UNIDAD DE ...- web.egpp.gob.bo/archivos/RESUMEN-EJECUTIVO-EGPP-UAI-03-14.docx- ADJUNTO 3 DECLARACIÓN JURADA SOBRE LAS CONDICIONES Y ...- web.egpp.gob.bo/archivos/Anexos%203%20-%204.docx- - Formulario de Admisión **** Yo-  el abajo firmado: Primer Nombre ...- web.egpp.gob.bo/archivos/Formulario%20de%20Admision.docx- - ESCUELA DE GESTION PÚBLICA PLURINACIONAL UNIDAD DE ...- web.egpp.gob.bo/archivos/RESUMEN%20EJECUTIVO-EGPP-UAI-0052014.docx- - ESCUELA DE GESTIÓN PÚBLICA PLURINACIONAL UNIDAD DE ...- web.egpp.gob.bo/archivos/RESUMEN%20EJECUTIVO-EGPP-UAI-S-0012014.docx- - resumen ejecutivo - Escuela de Gestión Pública Plurinacional- web.egpp.gob.bo/archivos/RESUMEN%20EJECUTIVO%20EGPP-UAI-004.docx- - [DOC]resumen ejecutivo - Escuela de Gestión Pública Plurinacional- web.egpp.gob.bo/archivos/RESUMEN%20EJECUTIVO%20EGPP-UAI-005-CGE.docx- - [DOC]resumen ejecutivo- web.egpp.gob.bo/.../05%20RESUMEN%20EJECUTIVO%20EGPP-UAI-005-2018.do...- - [DOC]ESCUELA DE GESTIÓN PÚBLICA PLURINACIONAL UNIDAD DE ...- web.egpp.gob.bo/archivos/Resumen%20Ejecutivo%20Inf-EGPP-UAI-S-007-14.docx- [DOC]resumen ejecutivo - Escuela de Gestión Pública Plurinacional- web.egpp.gob.bo/.../RESUMEN%20EJECUTIVO%20EGPP-UAI-005-2016%20-%20...- - [DOC]convocatoria - Escuela de Gestión Pública Plurinacional- web.egpp.gob.bo/.../TDR%20C%20PROD%20CM%20282%20-%20SISTEMATIZAC...- - [DOC]documento para descargar - Escuela de Gestión Pública Plurinacional- web.egpp.gob.bo/.../DBC%20CE%2001-%202017%202da%20conv%20MTTO%20D...- - [DOC]convocatoria - Escuela de Gestión Pública Plurinacional- web.egpp.gob.bo/.../TDR%20C%20PROD%20CM%20281%20-%20Dis%20Curr%20E...- [DOC]Convocatoria - Escuela de Gestión Pública Plurinacional- web.egpp.gob.bo/.../TDR%20C%20PROD%20CM%20199%20-%20DISENO%20CU...- - [XLS]Hoja1- web.egpp.gob.bo/archivos/RESUMEN%20EJECUTIVO-INF-ACTIVIDADES-14.xlsx- [XLS]resumen ejecutivo - Escuela de Gestión Pública Plurinacional- web.egpp.gob.bo/archivos/RESUMEN-EJECUTIVO-INF-ACT-AL-30-06-14.xlsx- [XLS]Hoja1 - Escuela de Gestión Pública Plurinacional- web.egpp.gob.bo/.../RESUMEN%20EJECUTIVO-INF-ACTIV-AL-30-06-15.xlsx- - - ,,,
,Proyecto Sucre Ciudad Universitaria,,,,,,,,
s,Observatorio Plurinacional de la Calidad Educativa,https://www.opce.gob.bo/,,Font Awesome- Google Font API  ,https://fonts.googleapis.com/css?family=Laila|Lato,"[DOC]formulario de presentación curriculo vitae - Observatorio Plurinacional ...,,,
www.opce.gob.bo/publico/administracion_c/download_data/3- [XLS]Hoja1,,,,,,,,,
www.opce.gob.bo/publico/administracion_c/download_ficha",,,,,,,,,
s,Museo Nacional de Historia Natural,http://www.mnhn.gob.bo/,Windows Server- Microsoft ASP.NET,Google Analytics,,,,,
s,Dirección Departamental de Educación Chuquisaca,http://www.ddechuquisaca.gob.bo/,,,https://www.websmultimedia.com/contador-de-visitas.php?id=246684,[DOC]caracterización - dirección departamental de chuquisaca- www.ddechuquisaca.gob.bo/.../PROGRAMAS%20DE%20ESTUDIO%20SECUNDAR...- - [DOC]Descargar- www.ddechuquisaca.gob.bo/.../FORMULARIOS%20PARA%20DESCARGOS%20201...- - [XLS]portera - dirección departamental de chuquisaca- www.ddechuquisaca.gob.bo/app/descargas/FORM_COMP_2018.xls- - www.ddechuquisaca.gob.bo/app/descargas/Datos_estadísticos_2018.xlsx- - documentos a presentar - dirección departamental de chuquisaca- www.ddechuquisaca.gob.bo/app/documentos/80480179.xlsm- - [XLSX]codigo sie 80480218 unidad educativa don bosco - dirección ...- www.ddechuquisaca.gob.bo/app/documentos/80480218.xlsm- - [XLSX]documentos a presentar - dirección departamental de chuquisaca- www.ddechuquisaca.gob.bo/app/documentos/40450016.xlsm- - [XLSX]codigo sie 80480072 unidad educativa ignacio prudencio bustillo- www.ddechuquisaca.gob.bo/app/documentos/80480072.xlsm- - [XLSX]formulario departamental- www.ddechuquisaca.gob.bo/app/documentos/80480226.xlsm- - [XLSX]graficos- www.ddechuquisaca.gob.bo/app/.../3%20FORMULARIO%20TERCERO.xlsm- - [XLSX]graficos- www.ddechuquisaca.gob.bo/app/.../4%20FORMULARIO%20CUARTO.xlsm- - [XLSX]2do dePrimaria- www.ddechuquisaca.gob.bo/app/.../2%20FORMULARIO%20SEGUNDO_ok.xlsm- - [XLSX]graficos- www.ddechuquisaca.gob.bo/app/documentos/6%20FORMULARIO%20SEXTO.xlsm- - [XLSX]registro- www.ddechuquisaca.gob.bo/app/.../1%20FORMULARIO%20PRIMERO.xlsm- - [XLSX]la madre naturaleza- www.ddechuquisaca.gob.bo/app/documentos/5%20FORMULARIO%20QUINTO.xlsm- [XLSX]formato centralizador estadisticas 2018- www.ddechuquisaca.gob.bo/.../FORMATO%20CENTRALIZADOR%20ESTADISTICA...- [XLSX]Estadística Estudiantes- www.ddechuquisaca.gob.bo/.../CUADRO%20CENTRALIZADOR%20DE%20ESTADIS…,,,
s,Dirección Departamental de Educación La Paz,http://ddeduclpz.gob.bo/,,Google Font API,https://cdnjs.cloudflare.com/ajax/libs/simple-line-icons/2.4.1/css/simple-line-icons.min.css- https://fonts.googleapis.com/css?family=Montserrat|Droid+Sans:400- 700&subset=latin- latin-ext,[DOC]Productor/a de quinua milenaria- www.ddeduclpz.gob.bo/images/pdfs/nue/EDUPER/15.docx?ml=1&iframe=1- - [DOC]NOMBRE DE LA NORMA DE COMPETENCIAS- www.ddeduclpz.gob.bo/images/pdfs/nue/EDUPER/16.docx?ml=1&iframe=1- - ,,,
s,Dirección Departamental de Educación Cochabamba,https://www.ddecochabamba.gob.bo/,,Google Font API,https://fonts.googleapis.com/css?family=Oswald:200- 300- regular- 500- 600- 700&subset=cyrillic- vietnamese- latin- latin-ext- https://fonts.googleapis.com/css?family=Cantarell:400- 700- ,,,,
s,Dirección Departamental de Educación Oruro,,,,,,,,
,Dirección Departamental de Educación Potosí,http://www.ddepotosi.gob.bo,Windows Server- Microsoft ASP.NET,Google Font API,https://fonts.googleapis.com/css?family=Ubuntu&subset=latin,,,,
,Dirección Departamental de Educación Tarija,,,,,,,,
s,Dirección Departamental de Educación Santa Cruz,http://santacruz-dde.edu.bo/,,Font Awesome -Google Font API,,"[XLS]inventario fisico - dde santa cruz,,,
www.santacruz dde.edu.bo/pdf/INSTRUCTIVOSf230768f8.xlsx",,,,,,,,,
,Dirección Departamental de Educación Beni,,,,,,,,
,Dirección Departamental de Educación Pando,,,,,,,,
,Escuela Boliviana Intercultural de Música,,,,,,,,
,Instituto Plurinacional de Estudio de Lenguas y Culturas,,,,,,,,
s,Escuela Militar de Ingeniería,https://www.emi.edu.bo/,,Font Awesome- Google Font API ,https://www.emi.edu.bo/plugins/system/jcemediabox/css/jcemediabox.min.css?bd5fa931fc61dabd341f2a70f2f5159f- https://fonts.googleapis.com/css?family=Open+Sans- https://fonts.googleapis.com/css?family=Open+Sans:300- 400- 500- 700- 800-,[DOC]Modelo de Solicitud Escrita al Jefe del Centro de ... - EMI - Posgrado- https://posgrado.emi.edu.bo/images/Maestrias_La.../modelocarta_1_1520864662.doc- - [DOC]ACTA DE REUNION DE COORDINADORES- https://www.emi.edu.bo/images/2017/criscos/Responsabilidades%20de%20becarios.doc- - Resultados de búsqueda- Resultados de la Web- [DOCX]solicitud de admisión al programa de maestrías - EMI - Posgrado- https://posgrado.emi.edu.bo/images/Maestrias_La_Paz/masti/Ficha.docx- - [DOCX]Compromiso de Estudios - EMI - Posgrado- https://posgrado.emi.edu.bo/images/Maestrias_La.../MODELO_COMPROMISO.docx- - [DOCX]solicitud de admisión al programa de maestrías - EMI - Posgrado- https://posgrado.emi.edu.bo/index.php/.../87_1da373a80713e237e298e05c19156dff- - [XLS]Reporte Ejecucion POA - EMI- https://www.emi.edu.bo/transparencia/poas/send/5-poas/8-poa-2017.html [DOC]Modelo de Solicitud Escrita al Jefe del Centro de ... - EMI - Posgrado- https://posgrado.emi.edu.bo/images/Maestrias_La.../modelocarta_1_1520864662.doc- - [DOC]ACTA DE REUNION DE COORDINADORES- https://www.emi.edu.bo/images/2017/criscos/Responsabilidades%20de%20becarios.doc- - Resultados de búsqueda- Resultados de la Web- [DOCX]solicitud de admisión al programa de maestrías - EMI - Posgrado- https://posgrado.emi.edu.bo/images/Maestrias_La_Paz/masti/Ficha.docx- - [DOCX]Compromiso de Estudios - EMI - Posgrado- https://posgrado.emi.edu.bo/images/Maestrias_La.../MODELO_COMPROMISO.docx- - [DOCX]solicitud de admisión al programa de maestrías - EMI - Posgrado- https://posgrado.emi.edu.bo/index.php/.../87_1da373a80713e237e298e05c19156dff- - [XLS]Reporte Ejecucion POA - EMI- https://www.emi.edu.bo/transparencia/poas/send/5-poas/8-poa-2017.html,,,
,,,,,,,,,
,Zona Franca Comercial e Industrial de Cobija,,,,,,,,
,Servicio Geodésico de Mapas,,,,,,,,
,Agencia de Gobierno Electrónico y Tecnologías de Información y Comunicación,https://agetic.gob.bo/,,,,,,,
,Comité Nacional de la Persona con Discapacidad,,,,,,,,
,Servicio Plurinacional de Defensa Pública,,,,,,,,
s,Dirección del Notariado Plurinacional,https://www.notariadoplurinacional.gob.bo/,,- Font Awsome - Google API - Google Analytics,- https://netdna.bootstrapcdn.com/font-awesome/4.1.0/css/font-awesome.css - https://use.fontawesome.com/releases/v5.1.0/css/all.css?ver=5.0.4 - https://fonts.googleapis.com/css?family=Acme|Montserrat - https://fonts.googleapis.com/css?family=Lato:400- 700- 400italic,- https://www.notariadoplurinacional.gob.bo/wp -content/uploads/2018/07/FORMULARIO-FP-001.xlsx,- Kaspersky Endpoint Security for Business - Advanced + Antispam,- Antivirus,
,Servicio Plurinacional de Asistencia a la Víctima,,,,,,,,
,Servicio para la Prevención de la Tortura,,,,,,,,
s,Autoridad General de Impugnación Tributaria,ati.gob.bo,,Google Analytics-  Revslider,https://code.jquery.com/ui/1.11.4/jquery-ui.js- https://fonts.googleapis.com/css?family=Open+Sans:400italic- 700italic- 400- 700&subset=latin- latin-ext&ver=4.9.- https://code.jquery.com/ui/1.11.4/themes/smoothness/jquery-ui.css- https://code.jquery.com/ui/1.11.4/themes/smoothness/images/ui-bg_flat_75_ffffff_40x100.png- https://code.jquery.com/ui/1.11.4/themes/smoothness/images/ui-bg_glass_75_e6e6e6_1x400.png- https://code.jquery.com/ui/1.11.4/themes/smoothness/images/ui-bg_glass_65_ffffff_1x400.png,[DOC]Especificaciones técnicas https://www.ait.gob.bo/DOCUMENTOS/adquisiciones/Revista.doc [DOC]Resumen Ejecutivo POA 2017 - Autoridad de Impugnación Tributaria www.ait.gob.bo/.../auditoria/.../RESUMEN%20EJECUTIVO%20POA%202017.doc,UTM-IDP-Servicio Sonicwall ,Antivirus,
s,Registro Único para la Administración Tributaria Municipal,https://www.ruat.gob.bo,,Google Analytics,,-elearning.ruat.gob.bo/formulario.xls,- Servicio de soporte FORTIANALYZER-VM - I333 - Red Hat Enterprise Linux Server -  Applications Manager - Oracle Database Enterprise Edition- Oracle Tunning Management Pack- Oracle Diagnostics Management Pack- Oracle Database Enterprise Edition,- Software para equipamiento de red - Soporte y asistencia S.O. Linux - Monitoreo de aplicaciones- Base de datos- Base de datos soporte,
,Autoridad de Supervisión del Sistema Financiero,,,,,,,,
,Aduana Nacional,www.aduana.gob.bo,,,,"""- https://www.aduana.gob.bo/.../FormatoAutorizacionADSIB_PersonaJuridica1.docx - www.sidunea.aduana.gob.bo/form138.doc - www.aduana.gob.bo/aduana7/sites/default/files/kcfinder/files/.../DEC571.doc - www.sidunea.aduana.gob.bo/biblio/Form162_ant.xls"" - www.sidunea.aduana.gob.bo/FDM_OFFLINE%5CFDM_OFF_LINE_V1.XLSM",- Jira- FX9600- ORACLE- Licencias Microsoft ,- Sistema de gestión de incidentes- Firewall- Base de datos,
s,Servicio de Impuestos Nacionales,https://www.impuestos.gob.bo/,,Font Awesome ,https://fonts.googleapis.com/css?family=Lato:100- 100i- 300- 300i- 400- 400i- 700- 700i- 900- 900i&subset=latin-ext- https://fonts.googleapis.com/css?family=Lato:100- 100i- 300- 300i- 400- 400i- 700- 700i- 900- 900i&subset=latin-ext- https://fonts.googleapis.com/css?family=Lato:100- 100i- 300- 300i- 400- 400i- 700- 700i- 900- 900i&subset=latin-ext- https://va.tawk.to/register/1561077428300- https://fonts.googleapis.com/css?family=Lato:100- 100i- 300- 300i- 400- 400i- 700- 700i- 900- 900i&subset=latin-ext- https://cdn.jsdelivr.net/emojione/2.2.7/assets/css/emojione.min.css- https://cdn.jsdelivr.net/emojione/2.2.7/lib/js/emojione.min.js- https://vs100.tawk.to/s/?k=5d0c267f696943e45b5f48bc&u=2t6xeAK00mrEvQ0N0dfULTcVTvLOj9okv4t4o2FwFwWb6YbRXt36H3yNIVpQkwbK&uv=2&a=59c91191c28eca75e46221f5&cver=1&pop=false&w=v9RCYt&jv=675&asver=23402&ust=false&p=Impuestos - SIN&r=https://duckduckgo.com/&EIO=3&transport=polling&__t=MjtTpIO- https://vs100.tawk.to/s/?k=5d0c267f696943e45b5f48bc&u=2t6xeAK00mrEvQ0N0dfULTcVTvLOj9okv4t4o2FwFwWb6YbRXt36H3yNIVpQkwbK&uv=2&a=59c91191c28eca75e46221f5&cver=1&pop=false&w=v9RCYt&jv=675&asver=23402&ust=false&p=Impuestos - SIN&r=https://duckduckgo.com/&EIO=3&transport=websocket&sid=ts8n7gU_Y3nJ42wmqxit&__t=MjtTpRm- https://vs100.tawk.to/s/?k=5d0c267f696943e45b5f48bc&u=2t6xeAK00mrEvQ0N0dfULTcVTvLOj9okv4t4o2FwFwWb6YbRXt36H3yNIVpQkwbK&uv=2&a=59c91191c28eca75e46221f5&cver=1&pop=false&w=v9RCYt&jv=675&asver=23402&ust=false&p=Impuestos - SIN&r=https://duckduckgo.com/&EIO=3&transport=polling&__t=MjtTpRm.0&sid=ts8n7gU_Y3nJ42wmqxit- https://vs100.tawk.to/s/?k=5d0c267f696943e45b5f48bc&u=2t6xeAK00mrEvQ0N0dfULTcVTvLOj9okv4t4o2FwFwWb6YbRXt36H3yNIVpQkwbK&uv=2&a=59c91191c28eca75e46221f5&cver=1&pop=false&w=v9RCYt&jv=675&asver=23402&ust=false&p=Impuestos - SIN&r=https://duckduckgo.com/&EIO=3&transport=polling&__t=MjtTpY0&sid=ts8n7gU_Y3nJ42wmqxit- https://embed.tawk.to/59c91191c28eca75e46221f5/default,[DOC]14 PASOS PARA OBTENER LOS FORMULARIOS ELECTRONICOS ...- newtonddjj1.impuestos.gob.bo/eforms/guia%20rapida%20e-foms.doc- archivo adjunto de tipo Excel - Siat- siatinfo.impuestos.gob.bo/images/archivos_tecnicos/archivos_apoyo/Paquetes.xlsx- - [XLS]f. servicios basicos - Siat - Impuestos Nacionales- siatinfo.impuestos.gob.bo/images/archivos_tecnicos/archivos.../Consumo_Servicios.xlsx- [XLS]archivo adjunto de tipo Excel- siatinfo.impuestos.gob.bo/images/archivos.../validacionesXML_XSD_SFE.xlsx- - [XLS]anulacion - Siat- siatinfo.impuestos.gob.bo/images/archivos_tecnicos/.../ValidacionesServicios.xlsx- - [XLS]Validaciones de los Documentos Fiscales - Siat- siatinfo.impuestos.gob.bo/images/archivos.../ValidacionesDocumentosFiscales.xlsx- - [XLS]Casos de Prueba - Siat- siatinfo.impuestos.gob.bo/images/archivos_tecnicos/.../CasosDePruebaCUFD.xlsx- - [XLS]productos_servicios - Siat- siatinfo.impuestos.gob.bo/images/archivos...apoyo/catalogo_productos_servicios.xlsx- [XLS]Catálogos para Facturación Electrónica - Siat- siatinfo.impuestos.gob.bo/images/archivos.../catalogos_facturacion_electronica.xlsx- - [XLS]archivo adjunto de tipo Excel- siatinfo.impuestos.gob.bo/images/archivos.../CasosPruebaSucursalPuntoVenta.xlsx- - [XLS]Sucursales - Siat- siatinfo.impuestos.gob.bo/images/archivos_tecnicos/.../CasosPruebaSucursal.xlsx- - ,IBM InfoSphere DataStage (ETL) - IBM Cognos Analytics (BI)-  IBM InfoSphere DataStage (ETL)- CyberArk- VMWare- Veeam Backup & Replication,Procesamiento de datos- Anlalítica- Plataforma de extracción-  transformación y cargado de datos- Control de acceso- Virtualización S.O.- Replicación- Infraestructura servidores,
,Autoridad de Fiscalización del Juego,,,,,,,,
,Autoridad de Fiscalización y Control de Pensiones y Seguros,,,,,,,,
s,Unidad de Investigaciones Financieras,http://www.uif.gob.bo/,,,,,GDATA EndpointProtection Enterprise- McAfee Email Security Solutions End of Life - McAfee Complete data Protection Advanced DLP+Cifrado,antivirus- antivirus- antivirus,
,Servicio de Desarrollo de las Empresas Públicas Productivas,,,,,,,,
s,Insumos Bolivia,http://www.insumosbolivia.gob.bo/,,,http://ajax.googleapis.com/ajax/libs/jquery/1.8.1/jquery.min.js- https://fonts.googleapis.com/css?family=Share:regular- bold,,,,
,Zona Franca Comercial e Industrial de Cobija,,,,,,,,
,Autoridad de Fiscalización de Empresas,,,,,,,,
,Instituto Boliviano de la Ceguera,,,,,,,,
,Lotería Nacional de Beneficencia y Salubridad,,,,,,,,
,Central de Abastecimiento y Suministros de Salud,,,,,,,,
,Instituto Nacional de Salud Ocupacional,,,,,,,,
s,Instituto Nacional de Reforma Agraria,http://www.inra.gob.bo,,,,[DOC]DBC - Inra- www.inra.gob.bo/InraPb/upload/conv29257_29260.doc- [DOC]documento estándar de licitación - Inra- www.inra.gob.bo/InraPb/upload/conv6937_6939.doc- - [DOC]declaracion jurada - Inra- www.inra.gob.bo/InraPb/upload/conv9321_9322.doc;jsessionid...- [DOC]banco interamericano de desarrollo (bid) - Inra- www.inra.gob.bo/InraPb/upload/conv37449_37491.doc;jsessionid...- [DOC]IMPEDIMENTOS PARA PARTICIPAR EN LOS PROCESOS DE ... - Inra- www.inra.gob.bo/InraPb/upload/conv5257_5258.doc;jsessionid...- - [DOC]banco interamericano de desarrollo (bid) - Inra- www.inra.gob.bo/InraPb/upload/conv37446_37486.doc;jsessionid...- - [DOC]banco interamericano de desarrollo (bid) - Inra- www.inra.gob.bo/InraPb/upload/conv37442_37489.doc;jsessionid...- - [DOC]DBC - Inra- www.inra.gob.bo/InraPb/upload/conv9345_9346.doc;jsessionid...- [DOC]7. declaratoria desierta - Inra- www.inra.gob.bo/InraPb/upload/conv18157_18162.doc;jsessionid...- [DOC]1 - Inra- www.inra.gob.bo/InraPb/upload/REInfUAINo132011.doc;jsessionid...- - [DOC]4. garantías - Inra- www.inra.gob.bo/InraPb/upload/conv15588_15591.doc;jsessionid...- [DOC]DBC - Inra- www.inra.gob.bo/InraPb/upload/conv9308_9309.doc;jsessionid...- [DOC]DOC-1.B PUBLICACIÓN INSTITUTO NACIONAL DE REFORMA ...- www.inra.gob.bo/InraPb/upload/conv37446_37485.doc;jsessionid...- - [DOC]Adquisición de Bienes - Guía del Usuario - Inra- www.inra.gob.bo/InraPb/upload/conv6937_7025.doc;jsessionid...- - [DOC]Informe UAI No. 06/2012- www.inra.gob.bo/InraPb/upload/REInfUAINo062012.doc;jsessionid...- - [DOC]1 - Inra- www.inra.gob.bo/InraPb/upload/REInfUAINo062012.doc;jsessionid...- [DOC]1 - Inra- www.inra.gob.bo/InraPb/upload/REInfUAINo102012.doc;jsessionid...- [DOC]1 - Inra- www.inra.gob.bo/InraPb/upload/REInfUAINo032012.doc;jsessionid...- - [DOC]1 - Inra- www.inra.gob.bo/InraPb/upload/REInfUAINo032012.doc;jsessionid...- - [DOC]1 - Inra- www.inra.gob.bo/InraPb/upload/REInfUAINo102012.doc;jsessionid...- - - Resultados de búsqueda- Resultados de la Web- [DOC]Adquisición de Bienes - Guía del Usuario- www.inra.gob.bo/InraPb/upload/conv6937_7023.zip;jsessionid...- [DOC]Adquisición de Bienes - Guía del Usuario - Inra- www.inra.gob.bo/InraPb/upload/conv6937_7023.zip;jsessionid...- - [PPT]Director Departamental - Inra- www.inra.gob.bo/InraPb/upload/CORRECCIoNParaAgenda.zip;jsessionid...- - [PPT]Reconducción Comunitaria de la Revolución Agraria - Inra- www.inra.gob.bo/InraPb/upload/INRA-Resumen%20Resultados.zip;jsessionid...- - [PPT]Reconducción Comunitaria de la Revolución Agraria - Inra- www.inra.gob.bo/InraPb/upload/INRA-Resumen%20Resultados.zip;jsessionid...- [PPT]Diapositiva 1 - Inra- www.inra.gob.bo/.../INRA-Estado%20de%20Avance%20Ene-Julio%202012%201-ag...- - [PPT]Diapositiva 1 - Inra- www.inra.gob.bo/.../INRA-Estado%20de%20Avance%20Ene-Julio%202012%201-ag...- - [XLS]008 perfiles - Inra- www.inra.gob.bo/InraPb/upload/conv9523_9530.xls- - [XLS]perfiles - Inra- www.inra.gob.bo/InraPb/upload/conv5642_5682.xls;jsessionid...- - [XLS]perfiles - Inra- www.inra.gob.bo/InraPb/upload/conv5416_5474.xls;jsessionid...- - [XLS]perfiles - Inra- www.inra.gob.bo/InraPb/upload/conv8678_8770.xls;jsessionid...- - [XLS]Formulario Único de Postulación- www.inra.gob.bo/InraPb/upload/conv66229_66233.xls;jsessionid...- - [XLS]DBC- www.inra.gob.bo/InraPb/upload/conv4494_5677.xls;jsessionid...- - [XLS]perfiles - Inra- www.inra.gob.bo/InraPb/upload/conv5496_5535.xls;jsessionid...- - [XLS]PAC - Inra- www.inra.gob.bo/InraPb/upload/FORMPACITT01CuadroBasePAC2015.xls;...- - [XLS]form inra 008 nuevo- www.inra.gob.bo/InraPb/upload/conv5598_5634.xls;jsessionid...- - [XLS]form inra 008 nuevo- www.inra.gob.bo/InraPb/upload/conv5544_5555.xls;jsessionid...- [XLS]formulario único de postulacion - Inra- www.inra.gob.bo/InraPb/upload/conv37234_37235.xlsx;jsessionid...- - [XLS]Hoja1- www.inra.gob.bo/.../BASE%20DE%20DATOS%20-%20PROVEEDORES%20CM%2...- - ,Windows 10,Sistema Operativo,
,Instituto Nacional de Innovación Agropecuaria y Forestal,,,,,,,,
,Instituto del Seguro Agrario,,,,,,,,
,Centro Internacional de la Quinua,,,,,,,,
,Fondo de Desarrollo Indígena,,,,,,,,
,Comité Organizador de los XI Juegos Suramericanos Cochabamba 2018,,,,,,,,
s,Servicio Estatal de Autonomías,http://sea.gob.bo/,,Google Analytics-  Google Font API,http://ajax.googleapis.com/ajax/libs/jquery/1.8.3/jquery.min.js- https://fonts.googleapis.com/css?family=Questrial- https://fonts.googleapis.com/css?family=Pacifico- https://fonts.googleapis.com/css?family=Lato,[PPT]Presentación de PowerPoint - Servicio estatal de Autonomías sea.gob.bo/.../LEY%20DEPARTAMENTAL%20DE%20DESARROLLO%20ECONO... [PPT]EMPRESA ESTRATEGICA DE PRODUCCION DE SEMILLAS - EEPS sea.gob.bo/.../ESTRATEGIAS%20DE%20PRODUCCION%20Y%20ABASTECIMIE...- [PPT]Presentación de PowerPoint - Servicio estatal de Autonomías- sea.gob.bo/.../LEY%20DEPARTAMENTAL%20DE%20DESARROLLO%20ECONO...- - [PPT]EMPRESA ESTRATEGICA DE PRODUCCION DE SEMILLAS - EEPS- sea.gob.bo/.../ESTRATEGIAS%20DE%20PRODUCCION%20Y%20ABASTECIMIE...- - gob.bo/index.php?option=com_phocadownload&view=category...- [DOC]MODELO DE DOCUMENTO BASE DE CONTRATACIÓN DE ...- sea.gob.bo/index.php?option=com_phocadownload&view=category...- [DOC]MODELO DE DOCUMENTO BASE DE CONTRATACIÓN DE ...- sea.gob.bo/index.php?option=com_phocadownload&view=category...- [DOC]MODELO DE DOCUMENTO BASE DE CONTRATACIÓN DE ...- sea.gob.bo/index.php?option=com_phocadownload&view=category...- [DOC]MODELO DE DOCUMENTO BASE DE CONTRATACIÓN DE ...- sea.gob.bo/index.php?option=com_phocadownload&view=category...- [DOC]MODELO DE DOCUMENTO BASE DE CONTRATACIÓN DE ...- sea.gob.bo/index.php?option=com_phocadownload&view...144...- - [DOC]A. CONVOCATORIA Se convoca a la presentación de propuestas ...- sea.gob.bo/index.php?option=com_phocadownload&view=category...- [DOC]MODELO DE DOCUMENTO BASE DE CONTRATACIÓN DE ...- sea.gob.bo/index.php?option=com_phocadownload&view...145...- - [DOC]MODELO DE DOCUMENTO BASE DE CONTRATACIÓN DE ...- sea.gob.bo/index.php?option=com_phocadownload&view...143...- - [DOC]MODELO DE DOCUMENTO BASE DE CONTRATACIÓN DE ...- sea.gob.bo/index.php?option=com_phocadownload&view=category...- - [DOC]Competencias_constitucionales_y_residuales.docx- sea.gob.bo/catalogo/CatalogoGral/3.../Competencias_constitucionales_y_residuales.do...- - [DOC]Código de etica- www.sea.gob.bo/index.php?option=com_phocadownload&view...456...- - [DOC]PK**********!*0 *r***********[Content_Types].xml ...- www.sea.gob.bo/index.php?option=com_phocadownload&view...- [DOC]gestión 2018- www.sea.gob.bo/index.php?option=com_phocadownload...- - [DOC]Adquisición de Materiales-  Útiles de Escritorio y Toners para el ...- www.sea.gob.bo/index.php?option=com_phocadownload...- ,kaspersky,Antivirus,
,Orquesta Sinfónica Nacional,,,,,,,,
,Consejo Nacional del Cine,,,,,,,,
,Centro de Investigaciones Arqueológicas-  Antropológicas y Adm. de Tiwanaku,,,,,,,,
,Agencia para el Desarrollo de las Macroregiones y Zonas Fronterizas,,,,,,,,
s,Instituto Nacional de Estadística,https://www.ine.gob.bo/,,- Font Awsome - Google API,-https://fonts.googleapis.com/css?family=Economica,- https://www.ine.gob.bo/images/CONVOCATORIAS/FormularioUnicoPostulacion.doc - anda.ine.gob.bo/ANDA4_3/index.php/catalog/461/download/2234 - https://www.ine.gob.bo/images/phocadownload/FP.docx - www.ine.gob.bo/subtemas_cuadros/5010503.xls - www.ine.gob.bo/subtemas_cuadros/commodities/Commodities0918BM.xlsx - anda.ine.gob.bo/ANDA4_3/index.php/catalog/338/download/1294 - censosbolivia.ine.gob.bo/webine/sites/default/files/.../2%20introduccion.ppsx,-Gdata Endpoint Protection Enterprice ,- Antivirus,
,Unidad de Análisis de Políticas Sociales y Económicas,,,,,,,,
,Fondo Nacional de Inversión Productiva y Social,,,,,,,,
s,Autoridad Jurisdiccional Administrativa Minera,http://www.autoridadminera.gob.bo,,,- https://fonts.googleapis.com/css?family=Oswald:400- 300 - https://fonts.googleapis.com/css?family=Roboto:400- 500- 700- 300 - https://fonts.googleapis.com/css?family=BenchNine|Roboto - https://widget-mediator.zopim.com/s/W/ws/Xx-IZXb4Wyhc+XVF/c/1560517680946 - https://use.fontawesome.com/releases/v4.6.3/css/font-awesome-css.min.css,Resultados de búsqueda - Resultados de la Web - [DOC]Descargar el Formulario de Intención de Adecuación Rápida ... - AJAM - www.autoridadminera.gob.bo/public/.../FormularioIntencionAdecuacionRapida.doc -  - [DOC]Microsoft Word - Datos a llenar para el titular - AJAM - www.autoridadminera.gob.bo/public/uploads/fiscalizacion/FormularioCF-01-01.doc -  - ,- KASPERSKY ENDPOINT SECURITY FOR BUSINESS ADVANCED,- Antivirus,
,Servicio Nacional de Registro y Control de la Comercialización de Minerales y Metales,,,,,,,,
,Servicio Geológico Minero,,,,,,,,
,Instituto Boliviano de Ciencia y Tecnología Nuclear,,,,,,,,
,Agencia Nacional de Hidrocarburos,,,,,,,,
,Autoridad de Fiscalización y Control Social de Electricidad,,,,,,,,
s,Agencia Boliviana de Energía Nuclear,aben.gob.bo,,Font Awesome ,- http://ftp.grupo-paf.com/es/images/enlaces/industria.jpg - http://ftp.grupo-paf.com/es/images/enlaces/energia.jpg,- www.aben.gob.bo/es/files/exprinteres.doc - www.aben.gob.bo/es/files/ingles.docx,- Sophos UTM ,- Firewall,
s,Dirección General de Aeronáutica Civil,https://www.dgac.gob.bo/,,,- https://fonts.googleapis.com/css?family=Rubik:400- 500 - https://fonts.googleapis.com/css?family=Rubik:400- 500,[DOC]b) Es imprescindible que los Datos Altimétricos de la … - DGAC www.dgac.gob.bo/DNAV/Form_Solicitud_Cert_Altura.doc - [DOC]antecedentes de reconocimiento - DGAC - https://www.dgac.gob.bo/dnav/aga/Form_Hab_Reg_Aerodromo.doc [DOC]Señor - https://www.dgac.gob.bo/ran/RequisitosSGC/DRAN_REG_001R2.doc - [DOC]DGAC/DAF/EXC/SG/001/2014-1C PROVISIÓN DE PASAJES ... - www.dgac.gob.bo/contrataciones/bienes/FORM.%20PASAJES.doc - [DOC]La Paz-  18 de noviembre de 2003 - DGAC - https://www.dgac.gob.bo/daf/.../FormularioPostulacion%20DGAC.doc - [DOC]b) Es imprescindible que los Datos Altimétricos de la ... - DGAC - https://www.dgac.gob.bo/wp-content/uploads/2018/.../Form_Solicitud_Cert_Altura.do... -  - [DOC]Formulario de Solicitud de Registro y Habilitación de ... - DGAC - https://www.dgac.gob.bo/wp-content/uploads/.../Form_Hab_Reg_Aerodromo.doc -  - [DOC],- AQD SMS ,,
,Consejo Nacional de Vivienda Policial,,,,,,,,
,Servicio al Mejoramiento de la Navegación Amazónica,,,,,,,,
,Administradora Boliviana de Carreteras,,,,,,,,
,Vías Bolivia,,,,,,,,
s,Autoridad de Regulación y Fiscalización de Telecomunicaciones y Transportes,https://att.gob.bo,,Google Analytics,,[DOC]carta - Autoridad de Regulación y Fiscalización de ...- https://att.gob.bo/sites/default/files/.../Declaración%20Jurada%20General.doc- - [DOC]carta - ATT- https://www.att.gob.bo/numequip/uploads/ATT-DJ-RA%20TL%200876-2013.doc- - [DOC]carta - ATT- www.att.gob.bo/numequip/uploads/ATT-DJ-RA%20TL%200879-2013.doc- - [DOC]Declaración Jurada de solicitudes de Radioaficionados.doc - ATT- https://att.gob.bo/.../Declaración%20Jurada%20de%20solicitudes%20de%20Radioafici...- - [DOC]Resolucion RAR 0091 02 Mod Formularios Instructivos12.doc- https://att.gob.bo/.../Resolucion%20RAR%200091%2002%20Mod%20Formularios%2...- - [DOC]Resolución Administrativa Nº 007/99 - ATT Bolivia- https://att.gob.bo/.../Resolucion%20RAR%201121%2003%20Aprueba%20formulario...- - [DOC]carta - ATT- https://att.gob.bo/.../Declaración%20Jurada%20relativas%20al%20servicio%20de%20...- - [DOC]Resolución Administrativa Regulatoria N° 2006/1723 - ATT Bolivia- https://att.gob.bo/.../Resolucion%20RAR%201723%2006%20Aprueba%20Instructivo%...- [DOC]carta - ATT- https://att.gob.bo/.../Declaración%20Jurada%20de%20Transferencia%20relativas%20a...- - [DOC]Resumen Ejecutivo Informe de Actividades Primer Semestre Gestión ...- https://att.gob.bo/.../Resumen%20Ejecutivo%20Informe%20de%20Actividades%20Pri...- - Resultados de búsqueda- Resultados de la Web- [DOC]Resumen Ejecutivo Planificación Estratégica y - Autoridad de ...- https://att.gob.bo/.../Resumen%20Ejecutivo%20Planificación%20Estratégica%20y%20...- - [DOC]INSTRUCTIVO DE LLENADO DEL FORMULARIO 221-  222-  223 ... - ATT- https://att.gob.bo/.../INSTRUCTIVO%20DE%20LLENADO%20DEL%20FORMULA...- - [DOC]Resumen Ejecutivo Programa de Operaciones Anual Gestión ... - ATT- https://att.gob.bo/.../Resumen%20Ejecutivo%20Programa%20de%20Operaciones%20...- - [DOC]Resumen Ejecutivo Informe de Actividades Primer Semestre ... - ATT- https://att.gob.bo/.../Resumen%20Ejecutivo%20Informe%20de%20Actividades%20Pri...- - [DOC]Resumen Ejecutivo Informe 09 Sistema de Organización ... - ATT- https://att.gob.bo/.../Resumen%20Ejecutivo%20Informe%2009%20Sistema%20de%2...- - [DOC]informe preliminar - ATT- https://att.gob.bo/.../Resumen%20Ejecutivo%20Informe%20de%20Auditoria%20Operati...- [DOC]Resumen Ejecutivo Informe de Actividades 2015- https://att.gob.bo/.../Resumen%20Ejecutivo%20Informe%20%20de%20Actividades%20...- [DOC]Resumen Ejecutivo Informe de Auditoría Interna Nº ATT- UAI-INF 02 ...- https://att.gob.bo/.../Resumen%20Ejecutivo%20Informe%20de%20Auditoría%20Inter...- - [DOC]Informe de Auditoría Interna No ATT-UAI-INF LP 11 2015.docx- https://att.gob.bo/.../Informe%20de%20Auditoría%20Interna%20No%20ATT-UAI-IN...- - [DOC]Resumen Ejecutivo Informe de Auditoría SAYCO del Sistema de ...- https://att.gob.bo/.../Resumen%20Ejecutivo%20Informe%20de%20Auditoría%20SAYC...- - [PPT]Reglamento Basico de Preinversión.ppsx - ATT Bolivia- https://att.gob.bo/sites/default/.../Reglamento%20Basico%20de%20Preinversión.ppsx- - ://att.gob.bo/sites/default/files/.../Formulario%202015%20--%20811.xls- [XLS]Formulario 2015 -- 803.xls- https://att.gob.bo/sites/default/files/.../Formulario%202015%20--%20803.xls- - [XLS]Formulario Trimestral Internet 212.xls - ATT- https://att.gob.bo/sites/default/files/.../Formulario%20Trimestral%20Internet%20212.xls- [XLS]Formulario 2016 -- 811.xls- https://att.gob.bo/sites/default/files/.../Formulario%202016%20--%20811_0.xls- - [XLS]Formulario SMS Semestral 3213.xls- https://att.gob.bo/sites/default/files/.../Formulario%20SMS%20Semestral%203213.xls- - [XLS]Formulario 2014 -- 803.xls- https://att.gob.bo/sites/default/files/.../Formulario%202014%20--%20803.xls- [XLS]Formulario 2013 - ATT- https://att.gob.bo/sites/default/files/.../Formulario%202013---%20%20811.xls- - [XLS]Formulario 2013 --- 803.xls - ATT- https://att.gob.bo/sites/default/files/.../Formulario%202013%20---%20803.xls- - [XLS]Formulario 2016 -- 803.xls - ATT- https://att.gob.bo/sites/default/files/.../Formulario%202016%20--%20803.xls- [XLS]Formulario 2014 -- 811.xls- https://att.gob.bo/sites/default/files/.../Formulario%202014%20--%20811.xls- - [XLS]0- https://att.gob.bo/.../FORMULARIO%20DE%20INFORME%20ANUAL%20DE%20ING...- [XLS]Hoja 1 - ATT- https://att.gob.bo/.../TL%20-%20OT%20-%2007.%20Otorgamiento%20Habilitación%2...- ,kaspersky -IMSVA ,Antivirus,
,Servicio General de Licencias de Conducir,,,,,,,,
s,Agencia Estatal de Vivienda,http://www.aevivienda.gob.bo/,,Font Awesome- Google Font API ,https://fonts.googleapis.com/css?family=Oswald,www.aevivienda.gob.bo/upload/simulador.xlsx- [XLS]formulario de postulacion - Agencia Estatal de Vivienda- www.aevivienda.gob.bo/descargas/formulario_de_postulacion%202014.xls- [DOC]ESTADO PLURINACIONAL DE BOLIVIA AGENCIA ESTATAL DE ...- www.aevivienda.gob.bo/descargas/preguntasfrecuentes.docx- - [DOC]INFORMACIÓN Y REQUISITOS BÁSICOS PARA POSTULAR A LOS ...- www.aevivienda.gob.bo/descargas/condominiowhipala.docx-,Licencias para Firewall DELL SONICWALL TZ105 y SONICWALL TZ400- Eset,Firewall- Antivirus,
s,Administración de Aeropuertos y Servicios Auxiliares a la Navegación Aérea,http://aasana.bo/,,Font Awesome- Google Font API ,https://fonts.googleapis.com/css?family=Roboto:400- 100- 100italic- 300- 300italic- 400italic- 500- 500italic- 700- 700italic- 900- 900italic,https://www.aasana.bo/uploads/files/121020173359dfa4d98bd84.doc- [DOC]aclaración importante señor (a) postulante-  les solicitamos ... - Aasana- aasana.bo/uploads/files/2152018205b02c140c73a8.docx- [DOC]aclaración importante señor (a) postulante-  les solicitamos ... - Aasana- aasana.bo/uploads/files/8112017305a0352e6d9f4b.docx- [DOC]CONVOCATORIA FOR. 006.docx - Aasana- aasana.bo/uploads/files/2042018315ada09b3a9d9a.docx- - [DOC]CURSO IBA RIBERALTA OFICIAL2018.docx - Aasana- aasana.bo/uploads/files/29102018485bd70cf0238ab.docx,,,
s,Servicio Nacional de Meteorología e Hidrología,http://senamhi.gob.bo,,Google Analytics,https://code.jquery.com/jquery-latest.js- https://c.tile.openstreetmap.org/6/21/34.png- https://b.tile.openstreetmap.org/6/21/35.png- https://c.tile.openstreetmap.org/6/19/34.png- https://c.tile.openstreetmap.org/6/19/35.png- https://c.tile.openstreetmap.org/6/20/33.png- https://c.tile.openstreetmap.org/6/20/36.png- https://a.tile.openstreetmap.org/6/21/33.png- https://a.tile.openstreetmap.org/6/21/36.png- https://b.tile.openstreetmap.org/6/19/33.png- https://c.tile.openstreetmap.org/6/22/34.png- https://www.openlayers.org/api/theme/default/style.css- https://www.openlayers.org/api/OpenLayers.js- http://www.openlayers.org/api/OpenLayers.js- https://openlayers.org/api/theme/default/style.css,[DOC]boletin decadal agro - SENAMHI- www.senamhi.gob.bo/PRONOSTICO_ESPECIAL_PAPA.doc- [DOC]El Coordinador del CIIFEN Juan José Nieto-  en conferencia de prensa ...- www.senamhi.gob.bo/foro/presentaciones/Resumen%20en%20imágenes.docx- - [XLSX]palca_grande.xlsx - Senamhi- www.senamhi.gob.bo/senamhi.gob.bo/hidrobol/07-11.../palca_grande.xlsx- - [XLSX]Datos Diarios - SENAMHI- www.senamhi.gob.bo/senamhi.gob.bo/hidrobol/07-11.../huatajata.xlsx- [XLSX]ulloma.xlsx - Senamhi- www.senamhi.gob.bo/senamhi.gob.bo/hidrobol/11-11.../ulloma.xlsx- [XLSX]Datos Diarios - SENAMHI- www.senamhi.gob.bo/senamhi.gob.bo/hidrobol/21-11.../ulloma.xlsx- [XLSX]Datos Diarios - SENAMHI- www.senamhi.gob.bo/senamhi.gob.bo/hidrobol/24-11.../guayaramerin.xlsx- [XLSX]Datos Diarios - Senamhi- www.senamhi.gob.bo/senamhi.gob.bo/hidrobol/11-11.../palca_grande.xlsx- [XLSX]Datos Diarios- www.senamhi.gob.bo/senamhi.gob.bo/hidrobol/07-11.../villamontes.xlsx- [XLSX]Datos Diarios - SENAMHI- www.senamhi.gob.bo/senamhi.gob.bo/hidrobol/10-11.../villamontes.xlsx- [XLSX]huatajata.xlsx - SENAMHI- www.senamhi.gob.bo/senamhi.gob.bo/hidrobol/14-11.../huatajata.xlsx- [XLSX]palca_grande.xlsx - Senamhi- www.senamhi.gob.bo/senamhi.gob.bo/hidrobol/14-11.../palca_grande.xlsx- - Datos Diarios- www.senamhi.gob.bo/senamhi.gob.bo/hidrobol/16-11.../guayaramerin.xlsx- [XLSX]Datos Diarios - SENAMHI- www.senamhi.gob.bo/senamhi.gob.bo/hidrobol/16-11.../camiaco.xlsx- [XLSX]Datos Diarios- www.senamhi.gob.bo/senamhi.gob.bo/hidrobol/16-11.../huatajata.xlsx- [XLSX]Datos Diarios- www.senamhi.gob.bo/senamhi.gob.bo/hidrobol/11-11.../huatajata.xlsx- [XLSX]Datos Diarios - Senamhi- www.senamhi.gob.bo/senamhi.gob.bo/hidrobol/24-11.../villamontes.xlsx- [XLSX]villamontes.xlsx - Senamhi- www.senamhi.gob.bo/senamhi.gob.bo/hidrobol/14-11.../villamontes.xlsx- [XLSX]villamontes.xlsx - SENAMHI- www.senamhi.gob.bo/senamhi.gob.bo/hidrobol/18-11.../villamontes.xlsx- [XLSX]camiaco.xlsx- www.senamhi.gob.bo/senamhi.gob.bo/hidrobol/24-11.../camiaco.xlsx- [XLSX]tambillo.xlsx- www.senamhi.gob.bo/senamhi.gob.bo/hidrobol/07-11.../tambillo.xlsx- [XLSX]Datos Diarios - SENAMHI- www.senamhi.gob.bo/senamhi.gob.bo/hidrobol/10-11.../riberalta.xlsx- tambillo.xlsx - SENAMHI- www.senamhi.gob.bo/senamhi.gob.bo/hidrobol/04-11.../tambillo.xlsx- [XLSX]Datos Diarios- www.senamhi.gob.bo/senamhi.gob.bo/hidrobol/11-11.../camiaco.xlsx- [XLSX]Datos Diarios- www.senamhi.gob.bo/senamhi.gob.bo/hidrobol/07-11.../camiaco.xlsx- [XLSX]guayaramerin.xlsx - Senamhi- www.senamhi.gob.bo/senamhi.gob.bo/hidrobol/10-11.../guayaramerin.xlsx- [XLSX]camiaco.xlsx - Senamhi- www.senamhi.gob.bo/senamhi.gob.bo/hidrobol/14-11.../camiaco.xlsx- [XLSX]Datos Diarios - SENAMHI- www.senamhi.gob.bo/senamhi.gob.bo/hidrobol/18-11.../huatajata.xlsx- [XLSX]huatajata.xlsx- www.senamhi.gob.bo/senamhi.gob.bo/hidrobol/10-11.../huatajata.xlsx- [XLSX]Datos Diarios - Senamhi- www.senamhi.gob.bo/senamhi.gob.bo/hidrobol/21-11.../tambillo.xlsx- [XLSX]Datos Diarios - Senamhi- www.senamhi.gob.bo/senamhi.gob.bo/hidrobol/21-11.../palca_grande.xlsx- - [XLSX]palca_grande.xlsx- www.senamhi.gob.bo/senamhi.gob.bo/hidrobol/10-11.../palca_grande.xlsx- - Datos Diarios- www.senamhi.gob.bo/senamhi.gob.bo/hidrobol/11-11.../riberalta.xlsx- [XLSX]guayaramerin.xlsx - SENAMHI- www.senamhi.gob.bo/senamhi.gob.bo/hidrobol/14-11.../guayaramerin.xlsx- [XLSX]ulloma.xlsx - SENAMHI- www.senamhi.gob.bo/senamhi.gob.bo/hidrobol/04-11.../ulloma.xlsx- [XLSX]ulloma.xlsx - SENAMHI- www.senamhi.gob.bo/senamhi.gob.bo/hidrobol/14-11.../ulloma.xlsx- [XLSX]villamontes.xlsx- www.senamhi.gob.bo/senamhi.gob.bo/hidrobol/04-11.../villamontes.xlsx- [XLSX]Datos Diarios- www.senamhi.gob.bo/senamhi.gob.bo/hidrobol/24-11.../riberalta.xlsx- [XLSX]Datos Diarios- www.senamhi.gob.bo/senamhi.gob.bo/hidrobol/24-11.../tambillo.xlsx- [XLSX]Datos Diarios - SENAMHI- www.senamhi.gob.bo/senamhi.gob.bo/hidrobol/04-11.../guayaramerin.xlsx- [XLSX]Datos Diarios - SENAMHI- www.senamhi.gob.bo/senamhi.gob.bo/hidrobol/16-11.../villamontes.xlsx- [XLSX]Datos Diarios - Senamhi- www.senamhi.gob.bo/senamhi.gob.bo/hidrobol/21-11.../huatajata.xlsx- - [XLSX]guayaramerin.xlsx- www.senamhi.gob.bo/senamhi.gob.bo/hidrobol/21-11.../guayaramerin.xlsx- [XLSX]Datos Diarios - SENAMHI- www.senamhi.gob.bo/senamhi.gob.bo/hidrobol/21-11.../villamontes.xlsx- [XLSX]Datos Diarios - SENAMHI- www.senamhi.gob.bo/senamhi.gob.bo/hidrobol/11-11.../guayaramerin.xlsx- [XLSX]Datos Diarios - Senamhi- www.senamhi.gob.bo/senamhi.gob.bo/hidrobol/07-11.../guayaramerin.xlsx- [XLSX]Datos Diarios - SENAMHI- www.senamhi.gob.bo/senamhi.gob.bo/hidrobol/18-11.../riberalta.xlsx- [XLSX]Datos Diarios - SENAMHI- www.senamhi.gob.bo/senamhi.gob.bo/hidrobol/04-11.../huatajata.xlsx- [XLSX]riberalta.xlsx - SENAMHI- www.senamhi.gob.bo/senamhi.gob.bo/hidrobol/14-11.../riberalta.xlsx- [XLSX]riberalta.xlsx- www.senamhi.gob.bo/senamhi.gob.bo/hidrobol/07-11.../riberalta.xlsx- [XLSX]Datos Diarios - SENAMHI- www.senamhi.gob.bo/senamhi.gob.bo/hidrobol/24-11.../palca_grande.xlsx- [XLSX]Datos Diarios - SENAMHI- www.senamhi.gob.bo/senamhi.gob.bo/hidrobol/18-11.../camiaco.xlsx- - [XLSX]ulloma.xlsx- www.senamhi.gob.bo/senamhi.gob.bo/hidrobol/10-11.../ulloma.xlsx- [XLSX]Datos Diarios - Senamhi- www.senamhi.gob.bo/senamhi.gob.bo/hidrobol/18-11.../guayaramerin.xlsx- [XLSX]Datos Diarios - Senamhi- www.senamhi.gob.bo/senamhi.gob.bo/hidrobol/24-11.../huatajata.xlsx- [XLSX]camiaco.xlsx- www.senamhi.gob.bo/senamhi.gob.bo/hidrobol/10-11.../camiaco.xlsx- [XLSX]Datos Diarios - Senamhi- www.senamhi.gob.bo/senamhi.gob.bo/hidrobol/18-11.../palca_grande.xlsx- - [XLSX]palca_grande.xlsx- www.senamhi.gob.bo/senamhi.gob.bo/hidrobol/04-11.../palca_grande.xlsx- [XLSX]camiaco.xlsx - SENAMHI- www.senamhi.gob.bo/senamhi.gob.bo/hidrobol/21-11.../camiaco.xlsx- [XLSX]Datos Diarios- www.senamhi.gob.bo/senamhi.gob.bo/hidrobol/16-11.../palca_grande.xlsx- [XLSX]puerto siles.xlsx - SENAMHI- www.senamhi.gob.bo/senamhi.gob.bo/hidrobol/14-11.../puerto%20siles.xlsx- [XLSX]el sena.xlsx- www.senamhi.gob.bo/senamhi.gob.bo/hidrobol/04-11.../el%20sena.xlsx- - [XLSX]Datos Diarios- www.senamhi.gob.bo/senamhi.gob.bo/hidrobol/11-11.../puerto%20siles.xlsx- [XLSX]puerto siles.xlsx - SENAMHI- www.senamhi.gob.bo/senamhi.gob.bo/hidrobol/04-11.../puerto%20siles.xlsx- [XLSX]Datos Diarios- www.senamhi.gob.bo/senamhi.gob.bo/hidrobol/11-11.../el%20sena.xlsx- [XLSX]Datos Diarios - Senamhi- www.senamhi.gob.bo/senamhi.gob.bo/hidrobol/11-11.../cachuela%20esperanza.xlsx- [XLSX]Datos Diarios - SENAMHI- www.senamhi.gob.bo/senamhi.gob.bo/hidrobol/24-11.../el%20sena.xlsx- [XLSX]el sena.xlsx - SENAMHI- www.senamhi.gob.bo/senamhi.gob.bo/hidrobol/10-11.../el%20sena.xlsx- [XLSX]Datos Diarios - SENAMHI- www.senamhi.gob.bo/senamhi.gob.bo/hidrobol/16-11.../cachuela%20esperanza.xlsx- [XLSX]Datos Diarios - SENAMHI- www.senamhi.gob.bo/senamhi.gob.bo/hidrobol/07-11.../cachuela%20esperanza.xlsx- [XLSX]Datos Diarios - SENAMHI- www.senamhi.gob.bo/senamhi.gob.bo/hidrobol/16-11.../el%20sena.xlsx- [XLSX]Datos Diarios - SENAMHI- www.senamhi.gob.bo/senamhi.gob.bo/hidrobol/24-11.../puerto%20siles.xlsx- - [XLSX]Datos Diarios - Senamhi- www.senamhi.gob.bo/senamhi.gob.bo/hidrobol/18-11.../cachuela%20esperanza.xlsx- [XLSX]el sena.xlsx - Senamhi- www.senamhi.gob.bo/senamhi.gob.bo/hidrobol/18-11.../el%20sena.xlsx- - [XLSX]puerto siles.xlsx- www.senamhi.gob.bo/senamhi.gob.bo/hidrobol/10-11.../puerto%20siles.xlsx- [XLSX]Datos Diarios- www.senamhi.gob.bo/senamhi.gob.bo/hidrobol/07-11.../calacoto%20desaguadero.xlsx- [XLSX]Datos Diarios - Senamhi- www.senamhi.gob.bo/senamhi.gob.bo/hidrobol/24-11.../cachuela%20esperanza.xlsx- [XLSX]Datos Diarios - SENAMHI- www.senamhi.gob.bo/senamhi.gob.bo/hidrobol/24-11.../calacoto%20desaguadero.xlsx- [XLSX]cachuela esperanza.xlsx- www.senamhi.gob.bo/senamhi.gob.bo/hidrobol/04-11.../cachuela%20esperanza.xlsx- [XLSX]Datos Diarios - Senamhi- www.senamhi.gob.bo/senamhi.gob.bo/hidrobol/16-11.../puerto%20siles.xlsx- [XLSX]cachuela esperanza.xlsx - Senamhi- www.senamhi.gob.bo/senamhi.gob.bo/hidrobol/14-11.../cachuela%20esperanza.xlsx- [XLSX]calacoto desaguadero..- www.senamhi.gob.bo/senamhi.gob.bo/hidrobol/16-11.../calacoto%20desaguadero.xlsx- - cachuela esperanza.xlsx - Senamhi- www.senamhi.gob.bo/senamhi.gob.bo/hidrobol/10-11.../cachuela%20esperanza.xlsx- [XLSX]Datos Diarios - Senamhi- www.senamhi.gob.bo/senamhi.gob.bo/hidrobol/04-11.../calacoto%20desaguadero.xlsx- [XLSX]Datos Diarios - SENAMHI- www.senamhi.gob.bo/senamhi.gob.bo/hidrobol/21-11.../el%20sena.xlsx- [XLSX]Datos Diarios - SENAMHI- www.senamhi.gob.bo/senamhi.gob.bo/hidrobol/21-11.../cachuela%20esperanza.xlsx- [XLSX]el sena.xlsx - SENAMHI- www.senamhi.gob.bo/senamhi.gob.bo/hidrobol/14-11.../el%20sena.xlsx- [XLSX]puerto siles.xlsx- www.senamhi.gob.bo/senamhi.gob.bo/hidrobol/21-11.../puerto%20siles.xlsx- [XLSX]Datos Diarios- www.senamhi.gob.bo/senamhi.gob.bo/hidrobol/07-11.../puerto%20siles.xlsx,,,
s,Fondo Nacional de Desarrollo Forestal,http://www.fonabosque.gob.bo/,,Google Analytics-  Google Font API,https://fonts.googleapis.com/css?family=Droid+Sans- https://fonts.googleapis.com/css?family=Droid+Sans- https://i.ytimg.com/vi/tOIzzGrIM2c/hqdefault.jpg- https://i.ytimg.com/vi/RlI6Ebg6N3s/hqdefault.jpg- https://i.ytimg.com/vi/qIJ6uo_8FFY/hqdefault.jpg- https://i.ytimg.com/vi/GBNbv4m8LI4/hqdefault.jpg- https://i.ytimg.com/vi/hlm9naTgzMg/hqdefault.jpg- https://i.ytimg.com/vi/c1I6DaP_UAs/hqdefault.jpg- https://i.ytimg.com/vi/aT75G6ln6_U/hqdefault.jpg- https://i.ytimg.com/vi/APi_Q6T2xnE/hqdefault.jpg,formulario-postulaci..- www.fonabosque.gob.bo/wp-content/uploads/.../FORMULARIO-POSTULACION.docx- [DOC]La Paz-  19 de Febrero de 2010- www.fonabosque.gob.bo/wp-content/uploads/2016/07/datos-sustentar.docx- - [DOC]hoja-de-vida-fonabos.. - Fonabosque- www.fonabosque.gob.bo/wp-content/.../03/HOJA-DE-VIDA-FONABOSQUE.docx- - [DOC]dãœa-inter-bosque-fa..- www.fonabosque.gob.bo/wp-content/.../DÌA-INTER-BOSQUE-FACEBOOK.docx- - [DOC]Formato-rotulacion-d..- www.fonabosque.gob.bo/wp-content/uploads/.../Formato-rotulacion-de-sobreT.docx- - [DOC]RENDICIÓN DE CUENTAS PÚBLICAS DE FONABOSQUE PRIMER ...- www.fonabosque.gob.bo/wp.../12/Nota-de-prensa-rendición-tarija-Corregida.docx- - [DOC]formulario de relevamiento de información para la ... - Fonabosque- www.fonabosque.gob.bo/.../FORMULARIO-DE-RELEVAMIENTO-DE-INFORMAC...- - ,,,
,Servicio Nacional para la Sostenibilidad de Servicios en Saneamiento Básico,,,,,,,,
,Entidad Ejecutora de Medio Ambiente y Agua,,,,,,,,
,Oficina Técnica Nacional de los Ríos Pilcomayo y Bermejo,,,,,,,,
,Servicio Nacional de Riego,,,,,,,,
,Servicio Departamental de Riego – Chuquisaca,,,,,,,,
,Servicio Departamental de Riego – La Paz,,,,,,,,
,Servicio Departamental de Riego – Cochabamba,,,,,,,,
,Servicio Departamental de Riego – Oruro,,,,,,,,
,Servicio Departamental de Riego – Potosí,,,,,,,,
,Servicio Departamental de Riego – Tarija,,,,,,,,
,Servicio Departamental de Riego – Santa Cruz,,,,,,,,
,Servicio Departamental de Riego – Beni,,,,,,,,
,Servicio Departamental de Riego – Pando,,,,,,,,
s,Autoridad de Fiscalización y Control Social de Agua Potable y Saneamiento Básico,http://www.aaps.gob.bo/,,Google Font API-  google Analytics,https://fonts.googleapis.com/css?family=Tangerine&subset=latin- cyrillic- greek,[DOC]ESTADO PLURINACIONAL DE BOLIVIA AUTORIDAD DE ...- www.aaps.gob.bo/images/archivos.../FORMULARIO_DE_POSTULACION_2018.doc...- - [DOC]ESTADO PLURINACIONAL DE BOLIVIA AUTORIDAD DE ...- www.aaps.gob.bo/images/archivos_aaps/CONVOCATORIAS/Form_6.docx- - [DOC]ESTADO PLURINACIONAL DE BOLIVIA AUTORIDAD DE ...- www.aaps.gob.bo/images/archivos.../FORMULARIO_DE_POSTULACION_2017.doc...- - ,,,
,Autoridad de Fiscalización y Control Social de Bosques y Tierras,,,,,,,,
,Autoridad Plurinacional de la Madre Tierra,,,,,,,,
,Autoridad de Fiscalización y Control de Cooperativas,,,,,,,,
,Escuela de Jueces del Estado,,,,,,,,
,Fundación Cultural del Banco Central de Bolivia,,,,,,,,
,Comité Ejecutivo de la Universidad Boliviana,,,,,,,,
,Universidad Mayor Real y Pontificia de San Francisco Xavier,,,,,,,,
s,Universidad Mayor de San Andrés,,,Google Analytics,-https://fonts.googleapis.com/css?family=Source+Sans+Pro&subset=latin- vietnamese- latin-ext- https://www.google-analytics.com/r/collect?v=1&_v=j77&a=1076043268&t=pageview&_s=1&dl=http://umsa.bo/web/guest&ul=es-es&de=UTF-8&dt=UMSA - Universidad Mayor de San Andrés&sd=24-bit&sr=1366x768&vp=1348x626&je=0&_u=AACAAEAB~&jid=1219354089&gjid=99828265&cid=93398130.1561825610&tid=UA-98713665-2&_gid=1372247247.1561825610&_r=1&z=1032472929- https://www.google-analytics.com/analytics.js,Resultados de búsqueda- Resultados de la Web- [DOCX]descargar - UMSA- dbi.umsa.bo/descarga/MED.docx- - [DOCX]descargar- dbi.umsa.bo/descarga/ECO.docx- - [DOCX]descargar - UMSA- dbi.umsa.bo/descarga/ADC.docx- - [DOCX]descargar- dbi.umsa.bo/descarga/AGRO.docx- - [DOCX]descargar - UMSA- dbi.umsa.bo/descarga/TEC.docx- - [DOCX]descargar - UMSA- dbi.umsa.bo/descarga/ARQ.docx- - [DOCX]descargar- dbi.umsa.bo/descarga/ING.docx- - [DOCX]descargar - UMSA- dbi.umsa.bo/descarga/PUR.docx- - [DOCX]descargar - UMSA- dbi.umsa.bo/descarga/FAR.docx- - [DOCX]descargar - UMSA- dbi.umsa.bo/descarga/HUMA.docx- - descargar - UMSA- dbi.umsa.bo/descarga/DER.docx- - [DOCX]descargar- dbi.umsa.bo/descarga/ODO.docx- - [DOCX]descargar - UMSA- dbi.umsa.bo/descarga/DIP.docx- - [DOCX]Declaración Jurada Economica - IICCA - UMSA- iicca.umsa.bo/files/DeclaracionJurada_Economica.docx- [DOCX]Declaración Jurada de Titulos - IICCA - UMSA- iicca.umsa.bo/files/DeclaracionJurada_Titulos.docx- [DOCX]descargar- dbi.umsa.bo/descarga/GEO.docx- - [DOCX]descargar - UMSA- dbi.umsa.bo/descarga/IDRU.docx- - [DOCX]descargar - UMSA- dbi.umsa.bo/descarga/CEP.docx- - [DOCX]Convenios - umsa- comunicacion.umsa.bo/documents/86766105/167309506/Convenios- - [DOCX]MODELO CARTA Nro 1 - CARRERA CONTADURIA PUBLICA- https://contaduriapublica.umsa.bo/documentos/kardex/modelo_carta.docx- - Convenios - umsa- comunicacion.umsa.bo/documents/86766105/168856412/Convenios- [DOCX]Formulario Nº 1 UNIVERSIDAD MAYOR DE SAN ANDRÉS ...- https://contaduriapublica.umsa.bo/documentos/kardex/formulario_01.docx- - [DOCX]Formulario Nº 2 UNIVERSIDAD MAYOR DE SAN ANDRÉS ...- https://contaduriapublica.umsa.bo/documentos/kardex/formulario_02.docx- - [DOCX]convocatoria pública - cepies - umsa- www.cepies.umsa.bo/.../docentes/.../FORMATO_D_02_docentes_CURRICULUM.doc...- - [DOCX]Bolivia.docx - Turismo UMSA- turismo.umsa.bo/documents/332882643/0/Bolivia.docx- - [DOCX]Formulario de inscripción- dipgis.umsa.bo/wp-content/uploads/inscripcion_formulario.docx- [DOCX]carta de compromiso: docentes - cepies - umsa- cepies.umsa.bo/documentos/docentes/.../FORMATO_D01_CARTA_DOCENTES.docx- - [DOCX]convocatoria pública - cepies - umsa- cepies.umsa.bo/documentos/...2013/FORMATO_D_03_PLAN_DE_TRABAJO.docx- - [DOCX]Combinaciones Pantalón oscuro-  saco deportivo café oscuro-  camisa ...- comunicacion.umsa.bo/documents/86766105/168856412/Prueba- - [DOCX]carta de compromiso: docentes - cepies - umsa- www.cepies.umsa.bo/documentos/.../FORMATO_D04_CARTA_PARENTESCO.docx- - [DOCX]contenido web.docx - umsa- comunicacion.umsa.bo/documents/86766105/168856412/contenido+web.docx- - [DOCX]declaración jurada - cepies - umsa- www.cepies.umsa.bo/.../conv2.../FORMATO_D_05_DECLARACION_JURADA-1.docx- por D FORMATO - ‎Mencionado por 1 - ‎Artículos relacionados- [DOCX]maestria en geotecnia - DIPGIS - UMSA- dipgis.umsa.bo/wp-content/uploads/MAESTRIA-EN-GEOTECNIA.docx- - [DOCX]Descargar Documento... - Turismo UMSA- turismo.umsa.bo/documents/332882643/0/PATRIMONIO+2+SOL.docx- [DOCX]universidad mayor de san andrés facultad de ... - Geografia - UMSA- www.geografia.umsa.bo/documents/437373746/0/CONV.+PREFACULTATIVO.docx- - [DOCX]Descargar Documento - Geografia - UMSA- www.geografia.umsa.bo/documents/437373746/0/TRIPTICO+FINAL+TSIG.docx- - [DOCX]Descargar Documento - Geografia - UMSA- www.geografia.umsa.bo/documents/437373746/0/TRIPTICO+FINAL+GEO.docx- - [DOCX]Project Plan- dipgis.umsa.bo/wp-content/uploads/7-Project-Plan.docx- [DOCX]1. se requiere un asesor para cada tesina? si se precisa-  el asesor ...- industrial.umsa.bo/documents/184826/324171/requisitospara%20ladefensa.docx- [DOCX]diplomado en gestión de riesgos de desastres versión i - Geografia- www.geografia.umsa.bo/documents/.../CONVOCATORIA+DIP+RIESGOS_DRS.docx- - maestria en ciencia animal - DIPGIS - UMSA- dipgis.umsa.bo/wp-content/uploads/MAESTRIA-EN-CIENCIA-ANIMAL.docx- - [DOCX]XML - UMSA-Facultad de Agronomía-Revistas y Artículos- ojs.agro.umsa.bo/index.php/ATP/article/view/158/157- - por SRP Tinini - ‎2017 - ‎Artículos relacionados- [DOCX]XML - UMSA-Facultad de Agronomía-Revistas y Artículos- ojs.agro.umsa.bo/index.php/ATP/article/view/86/89- - por R Miguel - ‎2017 - ‎Artículos relacionados- [DOCX]XML - UMSA-Facultad de Agronomía-Revistas y Artículos- ojs.agro.umsa.bo/index.php/ATP/article/view/190/189- - por ACÃG Llanos - ‎2018 - ‎Artículos relacionados- [DOCX]diplomado en actitud gestáltica - DIPGIS- dipgis.umsa.bo/wp-content/.../DIPLOMADO-EN-ACTITUD-GESTÁLTICA.docx- - [DOCX]antecedentes del programa granos andinos - UMSA-Facultad de ...- ojs.agro.umsa.bo/index.php/ATP/article/view/157/156- - por FM Reynoso - ‎2017 - ‎Artículos relacionados- [DOCX]Descargar - Sectorial del Área de Informática UMSA- informatica.sectorial.umsa.bo/docs/Comision%20POLITICAS%20ACADEMICAS.docx- [DOCX]XML - UMSA-Facultad de Agronomía-Revistas y Artículos- ojs.agro.umsa.bo/index.php/ATP/article/view/189/188- - por SWMÃ Yucra - ‎2018 - ‎Artículos relacionados- [DOCX]Guia - cepies - umsa- https://cepies.umsa.bo/convocatorias/2019/GuiaPractica%20de%20Investigacion.docx- - [DOCX]Comisión Bala y Chepete.docx- www.planificacion.umsa.bo/documents/1778193302/.../Comisión+Bala+y+Chepete.do...- - Formato Carta Solicitud de Ingreso - fcfb- fcfb.umsa.bo/documents/207602399/3d509f7d-00a8-4839-8e46-34ff94eaa371- [DOCX]UNIVERSIDAD boliviana írtfRSlDAD MAYOR DE SAN ANDRES HCU ...- gaceta.umsa.bo/bitstream/umsa/941/4/HCU-548-05.docx- [DOCX]HCU-292-16.docx - Gaceta Universitaria- gaceta.umsa.bo/bitstream/umsa/28308/1/HCU-292-16.docx- - [DOCX]REGISTRO RACS-CII-02 INFORME ACADÉMICO SEMESTRAL ...- industrial.umsa.bo/documents/184826/324167/Informe%20Académico%20Semestral- - [DOCX]Descargar Documento- www.geografia.umsa.bo/documents/.../0/AFICHE+Diplomado+GRyD+nuevo.docx- [DOCX]UNIVERSIDAD MAYOR DE SAN ANDRÉS ... - Geografia - UMSA- www.geografia.umsa.bo/.../0/UNIVERSIDAD+MAYOR+DE+SAN+ANDRÉ1.docx- - [DOCX]REUNIÓN SECTORIAL DE CARRERAS PROCEDIMIENTOS DE ...- informatica.sectorial.umsa.bo/docs/sectorial/04%20Procedimientos%20Sect.docx- [DOCX]Alcance del proyecto (docx) - DIPGIS- dipgis.umsa.bo/wp-content/uploads/1-Alcance-del-proyecto.docx- [DOCX]Revista Turismo Nº 30 Los artículos solicitados para la estructuración ...- turismo.umsa.bo/documents/332882643/0/tematica+30?version=1.0- [DOCX]HCU-373-16.docx - Gaceta Universitaria- gaceta.umsa.bo/bitstream/umsa/27971/1/HCU-373-16.docx- [DOC]Nombre de la Institución- iicca.umsa.bo/diplomados/responsabilidad_2016.doc- [DOC]Nombre de la Institución- iicca.umsa.bo/maestrias/macomex_2015.doc- [DOC]contrato de prestación de servicios - IICCA - UMSA- iicca.umsa.bo/diplomados/sabs_2016.doc- [DOC]contrato de prestación de servicios - IICCA - UMSA- iicca.umsa.bo/diplomados/gobierno_2015.doc- [DOC]estatuto orgánico-  reglamentos y disposiciones de la ... - umsa- comunicacion.umsa.bo/.../ESTATUTO_ORGANICO_DE_LA_UNIVERSIDAD_BOLI...- - [DOC]contrato de prestación de servicios - IICCA - UMSA- iicca.umsa.bo/maestrias/mba/mba_iv.doc- [DOC]reglamento y constitución de las comisiones del honorable ... - umsa- comunicacion.umsa.bo/documents/.../REGLAMENTO_COMISIONES_DEL_HCU- - [DOC]reglamento interno del honorable consejo universitario - umsa- comunicacion.umsa.bo/documents/.../REGLAMENTO_INTERNO_DEL_HCU- - [DOC]universidad mayor de san andres - CARRERA CONTADURIA PUBLICA- https://contaduriapublica.umsa.bo/documentos/01_2019/nuevos_2019.doc- - [DOC]METODOLOGIA DE CALIFICACION- industrial.umsa.bo/documents/.../FI05_sistema_calificacion_docentes_interinos.doc- - [DOC]La Paz-  20 de septiembre de 2009 - IICCA - UMSA- iicca.umsa.bo/files/IICCA-Carta_Aprobacion_Tutoria-Grupal.doc- [DOC]reglamento general de auxiliaturas academicas - umsa- comunicacion.umsa.bo/.../REGLAMENTO+AUXILIATURAS+ACADEMICAS- - [DOC]reglamento electoral estudiantil - umsa- comunicacion.umsa.bo/documents/.../REGLAMENTO+ELECTORAL+ESTUDIANTI...- - [DOC]reglamento del régimen estudiantil - umsa- comunicacion.umsa.bo/documents/.../REGLAMENTO+REGIMEN+ESTUDIANTIL- - [DOC]reglamento de funciones del fiscalizador estudiantil - umsa- comunicacion.umsa.bo/.../REGLAMENTO+FISCALIZADOR+ESTUDIANTIL- - [DOC]reglamento de postgrado - Gaceta Universitaria - UMSA- gaceta.umsa.bo/bitstream/umsa/1144/1/HCU127.05.doc- - [DOC]reglamento de postgrado - Gaceta Universitaria - UMSA- gaceta.umsa.bo/bitstream/umsa/12892/1/rCE472.06.doc- - [DOC]Descargar Documento - umsa- mecindustrial.umsa.bo/documents/707604089/0/convalidacion-materias-mecind.doc- - [DOC]reglamento general de graduacion - umsa- comunicacion.umsa.bo/.../REGLAMENTO+GENERAL+GRADUACION+TECNICA- - reglamento de postgrado - Gaceta Universitaria - UMSA- gaceta.umsa.bo/bitstream/umsa/1973/1/rCE401.05.doc- - [DOC]maestria en energias - DIPGIS - UMSA- dipgis.umsa.bo/wp-content/uploads/MAESTRIA-EN-ENERGIAS.doc- - [DOC]reglamento de postgrado - Gaceta Universitaria - UMSA- gaceta.umsa.bo/bitstream/umsa/12907/1/rCE487.06.doc- - [DOC]manual de procedimientos regimen estudiantil - umsa- comunicacion.umsa.bo/.../MANUAL+DE+PROCEDIMIENTOS+ESTUDIANTILES- - [DOC]rr424.05.doc- https://gaceta.umsa.bo/bitstream/umsa/2462/1/rr424.05.doc- - [DOC]reglamento canal 13 tvu - umsa- comunicacion.umsa.bo/documents/86766105/.../REGLAMENTO+CANAL+13+TVU- - [DOC]reglamento de postgrado - Gaceta Universitaria - UMSA- gaceta.umsa.bo/bitstream/umsa/1633/1/rCE057.05.doc- - [DOC]reglamento de postgrado - Gaceta Universitaria- gaceta.umsa.bo/bitstream/umsa/2136/1/rr089.05.doc- - [DOC]convocatoria - Electricidad - UMSA- electricidad.umsa.bo/documents/706936376/0/convocatoria-director-elect.doc- - [DOC]reglamento de postgrado - Gaceta Universitaria- gaceta.umsa.bo/bitstream/umsa/2579/1/rr545.05.doc- - - - ,,,
,Universidad Pública de El Alto,,,,,,,,
,Universidad Mayor de San Simón,,,,,,,,
,Universidad Técnica de Oruro,,,,,,,,
,Universidad Autónoma Tomás Frías,,,,,,,,
,Universidad Nacional Siglo XX,,,,,,,,
,Universidad Autónoma Juan Misael Saracho,,,,,,,,
,Universidad Autónoma Gabriel René Moreno,,,,,,,,
,Universidad Autónoma del Beni José Ballivián,,,,,,,,
,Universidad Amazónica de Pando,,,,,,,,
,Universidad Indígena Boliviana Comunitaria Intercultural Productiva Tupak Katari,,,,,,,,
,Universidad Indígena Boliviana Comunitaria Intercultural Productiva Casimiro Huanca,,,,,,,,
,Universidad Indígena Boliviana Comunitaria Intercultural Productiva Apiaguaiki Tupa,,,,,,,,
,Corporación del Seguro Social Militar,,,,,,,,
,Caja Nacional de Salud,,,,,,,,
,Caja Petrolera de Salud,,,,,,,,
,Caja Bancaria Estatal de Salud,,,,,,,,
,Caja de Salud del Servicio Nacional de Caminos y Ramas Anexas,,,,,,,,
,Caja de Salud CORDES,,,,,,,,
,Seguro Social Universitario de Cochabamba,,,,,,,,
,Seguro Social Universitario de Oruro,,,,,,,,
,Seguro Social Universitario de Santa Cruz,,,,,,,,
,Seguro Social Universitario de Sucre,,,,,,,,
,Seguro Social Universitario de La Paz,,,,,,,,
,Seguro Social Universitario de Tarija,,,,,,,,
,Seguro Social Universitario de Potosí,,,,,,,,
,Seguro Social Universitario de Beni,,,,,,,,
,Seguro Integral de Salud,,,,,,,,
,Transportes Aéreos Bolivianos,,,,,,,,
,Corporación de las Fuerzas Armadas para el Desarrollo Nacional (COFADENA),,,,,,,,
,Empresa Naviera Boliviana,,,,,,,,
,Depósitos Aduaneros Bolivianos,,,,,,,,
,Administración de Servicios Portuarios – Bolivia,,,,,,,,
,Empresa de Apoyo a la Producción de Alimentos,,,,,,,,
,Empresa Pública Nacional Estratégica Lácteos de Bolivia,,,,,,,,
,Empresa Pública Nacional Estratégica Papeles de Bolivia,,,,,,,,
,Empresa Pública Nacional Estratégica Cartones de Bolivia,,,,,,,,
,Empresa Pública Nacional Estratégica Cementos de Bolivia,,,,,,,,
,Empresa Boliviana de Almendra y Derivados,,,,,,,,
,Empresa Azucarera San Buenaventura,,,,,,,,
,Empresa Pública “QUIPUS”,,,,,,,,
,Empresa Pública YACANA,,,,,,,,
,Corporación Minera de Bolivia,,,,,,,,
,Empresa Metalúrgica VINTO –Nacionalizada,,,,,,,,
,Empresa Siderúrgica del Mutún,,,,,,,,
,Yacimientos Petrolíferos Fiscales Bolivianos,https://www.ypfb.gob.bo/,,,,Pasantías – YPFB [XLS]Historico de Inversiones - YPFB - https://www.ypfb.gob.bo/es/transparencia/gestión-2015/.../88-inversiones.html?...794... - [XLS]Inversiones - YPFB - https://www.ypfb.gob.bo/es/transparencia/gestión-2013/.../88-inversiones.html?...794... - [XLS]Separata 1 - YPFB - https://www.ypfb.gob.bo/es/component/phocadownload/.../141-separatas.html?...1030... - [XLS]Yacimientos Petroliferos Fiscales Bolivianos - YPFB - https://www.ypfb.gob.bo/es/transparencia/gestión-2014/.../88-inversiones.html?...794... - [XLS]Lista ex-trabajadores pago primas gestión 2016 - YPFB - https://www.ypfb.gob.bo/es/component/phocadownload/.../85-primas.html?...1324... - [XLS]Nomina - YPFB - https://www.ypfb.gob.bo/en/component/phocadownload/.../85-primas.html?...1324... - [XLS]Lista ex-trabajadores pago primas gestión 2015 - YPFB - https://www.ypfb.gob.bo/es/component/phocadownload/.../85-primas.html?...lista... -  - [XLS]Cuadros Graficos 2011 - YPFB - https://www.ypfb.gob.bo/en/transparencia/.../41-enero-diciembre-2011.html?...192... -  - [XLS]buzon de sugerencias - YPFB - https://www.ypfb.gob.bo/es/component/.../199-documentos-gcom.html?download... -  - [XLS]1. solicitud de calificacion - YPFB - https://www.ypfb.gob.bo/.../201-fusionistas-habilitados-para-uniones-por-electrofusió... -  -  - https://www.ypfb.gob.bo/es/.../8-pasantias-y-practicas-universitarias.html?download... - Pasantías YPFB. - [DOC]Pasantías - YPFB - https://www.ypfb.gob.bo/es/.../8-pasantias-y-practicas-universitarias.html?download... - Pasantías YPFB. - [DOC]dga-24 ralp-20-13 e°s°llallagua - https://www.ypfb.gob.bo/es/transparencia/informes-de...de.../106-junio.html?... - [DOC]unidad de archivo - YPFB - https://www.ypfb.gob.bo/es/transparencia/informes-de.../105-mayo.html?... - [DOC]4. impedidos para participar en los procesos de selección de ... - YPFB - https://www.ypfb.gob.bo/es/component/.../72-publicaciones.html?...1123... - [DOC]dga-17 ralp-13-13 ipc rio grande - https://www.ypfb.gob.bo/es/transparencia/informes-de...de.../105-mayo.html?... - [DOC]Están impedidos para participar-  directa o indirectamente en el ... - YPFB - www.ypfb.gob.bo/.../convocatoria-publica-externa-venta-de-crudo-reconstituido-reco... - [DOC]Están impedidos para participar-  directa o indirectamente en el ... - YPFB - www.ypfb.gob.bo/.../convocatoria-publica-externa-venta-de-urea-en-mercado-extern... - [DOC]R E Inf DGA-19 JUOR-C-CI-07-14 Cuentas Act Exigible DTCC - https://www.ypfb.gob.bo/es/transparencia/...de.../121-septiembre.html?... - [DOC]Están impedidos para participar-  directa o indirectamente en el ... - YPFB - www.ypfb.gob.bo/.../sco-001-dac-001-gnc-2015-venta-de-crudo-reconstituido-recon... -  - ,,,
,Empresa Nacional de Electricidad,,,,,,,,
,Empresa Boliviana de Industrialización de Hidrocarburos,,,,,,,,
,Empresa Nacional de Ferrocarriles – Residual,,,,,,,,
,Empresa de Correos de Bolivia,,,,,,,,
,Boliviana de Aviación,,,,,,,,
,Agencia Boliviana Espacial,,,,,,,,
,Empresa Estratégica Boliviana de Construcción y Conservación de Infraestructura Civil,,,,,,,,
,Empresa Estatal de Transporte por Cable “Mi Teleférico”,,,,,,,,
,Empresa Estatal de Televisión “BOLIVIA TV”,,,,,,,,
,Empresa Estatal “Boliviana de Turismo”,,,,,,,,
,Gobierno Autónomo Departamental de Chuquisaca,,,,,,,,
,Gobierno Autónomo Departamental de La Paz,,,,,,,,
,Gobierno Autónomo Departamental de Cochabamba,,,,,,,,
,Gobierno Autónomo Departamental de Oruro,,,,,,,,
,Gobierno Autónomo Departamental de Potosí,,,,,,,,
,Gobierno Autónomo Departamental de Tarija,,,,,,,,
,Gobierno Autónomo Departamental de Santa Cruz,,,,,,,,
,Gobierno Autónomo Departamental del Beni,,,,,,,,
,Gobierno Autónomo Departamental de Pando,,,,,,,,
,Gobierno Autónomo Municipal de Sucre,,,,,,,,
,Gobierno Autónomo Municipal de La Paz,,,,,,,,
,Gobierno Autónomo Municipal de Cochabamba,www.cochabamba.bo,,Google Analytics-  Google Font API,- https://fonts.googleapis.com/css?family=Open+Sans:300- 400- 600- 700- https://fonts.googleapis.com/css?family=Oswald:300- 400- 700- http://maps.googleapis.com/maps-api-v3/api/js/37/3/intl/es_419/common.js- http://maps.googleapis.com/maps-api-v3/api/js/37/3/intl/es_419/util.js- http://maps.googleapis.com/maps-api-v3/api/js/37/3/intl/es_419/geocoder.js- http://maps.googleapis.com/maps-api-v3/api/js/37/3/intl/es_419/map.js- https://fonts.googleapis.com/css?family=Roboto:300- 400- 500- 700|Google+Sans,- ns1.cochabamba.bo/documentos/Formulario_adquisicion_bienes.xlsx - www.cochabamba.bo/documentos/auditoria/poa2013.doc - www.cochabamba.bo/documentos/.../Formulario_Declaraciones_Juradas_Lotes.xls - ns1.cochabamba.bo/documentos/Formulario_adquisicion_bienes.xlsx, Panda Adaptive Defense 360 ,,
,Gobierno Autónomo Municipal de Oruro,,,,,,,,
,Gobierno Autónomo Municipal de Potosí,,,,,,,,
,Gobierno Autónomo Municipal de Tarija,,,,,,,,
,Gobierno Autónomo Municipal de Santa Cruz de la Sierra,,,,,,,,
,Gobierno Autónomo Municipal de Trinidad,,,,,,,,
,Gobierno Autónomo Municipal de Cobija,,,,,,,,
,Fondo Nacional de Desarrollo Regional,,,,,,,,
,Fondo de Desarrollo del Sistema Financiero y Apoyo al Sector Productivo (*),,,,,,,,
,Fondo de Financiamiento para la Minería,,,,,,,,
,Fondo Rotatorio de Fomento Productivo Regional,,,,,,,,
,Banco Central de Bolivia (*),,,,,,,,
,Empresa Tarijeña del Gas,,,,,,,,
,Empresa Misicuni,,,,,,,,
,Empresa Pública Departamental Estratégica de Aguas ‐ La Paz,,,,,,,,
,Empresa Pública Departamental Hotel Terminal – Terminal de Buses de Oruro,,,,,,,,
,Empresa Local de Agua Potable y Alcantarillado Sucre,,,,,,,,
,Empresa Municipal de Áreas Verdes Sucre,,,,,,,,
,Servicio Autónomo Municipal de Agua Potable y Alcantarillado,,,,,,,,
,Empresa Municipal de Áreas Verdes-  Parques y Forestación,,,,,,,,
,Empresa Municipal de Asfaltos y Vías,,,,,,,,
,Empresa Municipal de Aseo de El Alto,,,,,,,,
,Empresa Municipal de Agua Potable y Alcantarillado Viacha,,,,,,,,
,Servicio Municipal de Agua Potable y Alcantarillado,,,,,,,,
,Empresa Municipal de Áreas Verdes y Recreación Alternativa,,,,,,,,
,Empresa Municipal de Servicios de Aseo,,,,,,,,
,Empresa Municipal de Gestión de Residuos Sólidos,,,,,,,,
,Empresa Municipal de Agua Potable y Alcantarillado Sacaba,,,,,,,,
,Servicio Local de Acueductos y Alcantarillado – Oruro,,,,,,,,
,Administración Autónoma para Obras Sanitarias – Potosí,,,,,,,,
,Empresa Pública Municipal de Servicios de Agua Potable y Alcantarillado Sanitario Cobija,,,,,,,,
,Centro de Investigación Agrícola Tropical,,,,,,,,
,Servicio de Cuencas (SEARPI),,,,,,,,
,,,,,,,,,
,,,,,,,,,
,,,,,,,,,
,,,,,,,,,
,,,,,,,,,
,,,,,,,,,
,,,,,,,,,
,,,,,,,,,
,,,,,,,,,
,,,,,,,,,
,,,,,,,,,
,,,,,,,,,
,,,,,,,,,
,,,,,,,,,
,,,,,,,,,
,,,,,,,,,
,,,,,,,,,
,,,,,,,,,
,,,,,,,,,
,,,,,,,,,
,,,,,,,,,
,,,,,,,,,
,,,,,,,,,
,,,,,,,,,
,,,,,,,,,
,,,,,,,,,
,,,,,,,,,
,,,,,,,,,
,,,,,,,,,
,,,,,,,,,
,,,,,,,,,
,,,,,,,,,
,,,,,,,,,
,,,,,,,,,
,,,,,,,,,
,,,,,,,,,
,,,,,,,,,
,,,,,,,,,
,,,,,,,,,
,,,,,,,,,
,,,,,,,,,
,,,,,,,,,
,,,,,,,,,
,,,,,,,,,
,,,,,,,,,
,,,,,,,,,
,,,,,,,,,
,,,,,,,,,
,,,,,,,,,
,,,,,,,,,
,,,,,,,,,
,,,,,,,,,
,,,,,,,,,
,,,,,,,,,
,,,,,,,,,
,,,,,,,,,
,,,,,,,,,
,,,,,,,,,
,,,,,,,,,
,,,,,,,,,
,,,,,,,,,
,,,,,,,,,
,,,,,,,,,
,Sube a la fila 1 ^,,,,,,,,
